<?xml version="1.0" encoding="UTF-8" standalone="no"?>
<!-- Created with Inkscape (http://www.inkscape.org/) -->

<svg
   width="936.8045"
   height="334.33755"
   id="svg2"
   version="1.1"
   inkscape:version="1.2.1 (9c6d41e410, 2022-07-14)"
   sodipodi:docname="intro_fig28.svg"
   viewBox="0 0 878.25421 313.44147"
   xmlns:inkscape="http://www.inkscape.org/namespaces/inkscape"
   xmlns:sodipodi="http://sodipodi.sourceforge.net/DTD/sodipodi-0.dtd"
   xmlns="http://www.w3.org/2000/svg"
   xmlns:svg="http://www.w3.org/2000/svg"
   xmlns:rdf="http://www.w3.org/1999/02/22-rdf-syntax-ns#"
   xmlns:cc="http://creativecommons.org/ns#"
   xmlns:dc="http://purl.org/dc/elements/1.1/">
  <defs
     id="defs4" />
  <sodipodi:namedview
     id="base"
     pagecolor="#ffffff"
     bordercolor="#666666"
     borderopacity="1.0"
     inkscape:pageopacity="0.0"
     inkscape:pageshadow="2"
     inkscape:zoom="0.64950345"
     inkscape:cx="83.140436"
     inkscape:cy="108.54446"
     inkscape:document-units="px"
     inkscape:current-layer="layer1"
     showgrid="false"
     fit-margin-top="0"
     fit-margin-left="0"
     fit-margin-right="0"
     fit-margin-bottom="0"
     inkscape:window-width="2580"
     inkscape:window-height="1050"
     inkscape:window-x="1597"
     inkscape:window-y="0"
     inkscape:window-maximized="1"
     inkscape:showpageshadow="2"
     inkscape:pagecheckerboard="0"
     inkscape:deskcolor="#d1d1d1" />
  <metadata
     id="metadata7">
    <rdf:RDF>
      <cc:Work
         rdf:about="">
        <dc:format>image/svg+xml</dc:format>
        <dc:type
           rdf:resource="http://purl.org/dc/dcmitype/StillImage" />
        <dc:title />
      </cc:Work>
    </rdf:RDF>
  </metadata>
  <g
     inkscape:label="Layer 1"
     inkscape:groupmode="layer"
     id="layer1"
     transform="translate(-30.942614,-28.265514)">
    <g
       id="g421">
      <path
         id="rect2985"
         d="m 105.606,94.741714 h 47.47385 V 142.21556 H 105.606 Z"
         style="fill:#666666;fill-opacity:1;stroke:#000000;stroke-width:2.13246;stroke-linejoin:round;stroke-miterlimit:4;stroke-dashoffset:0;stroke-opacity:1"
         inkscape:connector-curvature="0" />
      <path
         id="rect2985-9"
         d="m 155.2123,94.741717 h 47.47385 V 142.21556 H 155.2123 Z"
         style="fill:#666666;fill-opacity:1;stroke:#000000;stroke-width:2.13246;stroke-linejoin:round;stroke-miterlimit:4;stroke-dashoffset:0;stroke-opacity:1"
         inkscape:connector-curvature="0" />
      <path
         id="rect2985-9-7"
         d="m 204.8186,94.741719 h 47.47385 V 142.21556 H 204.8186 Z"
         style="fill:#666666;fill-opacity:1;stroke:#000000;stroke-width:2.13246;stroke-linejoin:round;stroke-miterlimit:4;stroke-dashoffset:0;stroke-opacity:1"
         inkscape:connector-curvature="0" />
      <path
         inkscape:connector-curvature="0"
         id="rect2985-8"
         d="m 105.606,144.34801 h 47.47385 v 47.47385 H 105.606 Z"
         style="fill:#666666;fill-opacity:1;stroke:#000000;stroke-width:2.13246;stroke-linejoin:round;stroke-miterlimit:4;stroke-dashoffset:0;stroke-opacity:1" />
      <path
         id="rect2985-9-0"
         d="m 155.2123,144.34801 h 47.47385 v 47.47385 H 155.2123 Z"
         style="fill:#ffffff;fill-opacity:1;stroke:#000000;stroke-width:2.13246;stroke-linejoin:round;stroke-miterlimit:4;stroke-dashoffset:0;stroke-opacity:1"
         inkscape:connector-curvature="0" />
      <path
         id="rect2985-9-7-8"
         d="m 204.8186,144.34802 h 47.47385 v 47.47384 H 204.8186 Z"
         style="fill:#666666;fill-opacity:1;stroke:#000000;stroke-width:2.13246;stroke-linejoin:round;stroke-miterlimit:4;stroke-dashoffset:0;stroke-opacity:1"
         inkscape:connector-curvature="0" />
      <path
         inkscape:connector-curvature="0"
         id="rect2985-2"
         d="m 105.606,193.95431 h 47.47385 v 47.47385 H 105.606 Z"
         style="fill:#666666;fill-opacity:1;stroke:#000000;stroke-width:2.13246;stroke-linejoin:round;stroke-miterlimit:4;stroke-dashoffset:0;stroke-opacity:1" />
      <path
         id="rect2985-9-4"
         d="m 155.2123,193.95431 h 47.47385 v 47.47385 H 155.2123 Z"
         style="fill:#666666;fill-opacity:1;stroke:#000000;stroke-width:2.13246;stroke-linejoin:round;stroke-miterlimit:4;stroke-dashoffset:0;stroke-opacity:1"
         inkscape:connector-curvature="0" />
      <path
         id="rect2985-9-7-6"
         d="m 204.8186,193.95431 h 47.47385 v 47.47385 H 204.8186 Z"
         style="fill:#666666;fill-opacity:1;stroke:#000000;stroke-width:2.13246;stroke-linejoin:round;stroke-miterlimit:4;stroke-dashoffset:0;stroke-opacity:1"
         inkscape:connector-curvature="0" />
      <path
         inkscape:connector-curvature="0"
         id="rect2985-85"
         d="m 105.606,243.5606 h 47.47385 v 47.47385 H 105.606 Z"
         style="fill:#666666;fill-opacity:1;stroke:#000000;stroke-width:2.13246;stroke-linejoin:round;stroke-miterlimit:4;stroke-dashoffset:0;stroke-opacity:1" />
      <path
         id="rect2985-9-41"
         d="m 155.2123,243.56061 h 47.47385 v 47.47384 H 155.2123 Z"
         style="fill:#ffffff;fill-opacity:1;stroke:#000000;stroke-width:2.13246;stroke-linejoin:round;stroke-miterlimit:4;stroke-dashoffset:0;stroke-opacity:1"
         inkscape:connector-curvature="0" />
      <path
         id="rect2985-9-7-9"
         d="m 204.8186,243.56061 h 47.47385 v 47.47384 H 204.8186 Z"
         style="fill:#666666;fill-opacity:1;stroke:#000000;stroke-width:2.13246;stroke-linejoin:round;stroke-miterlimit:4;stroke-dashoffset:0;stroke-opacity:1"
         inkscape:connector-curvature="0" />
      <path
         d="M 30.942614,54.035046 V 28.265514 H 34.35277 V 50.99403 h 12.691406 v 3.041016 H 30.942614"
         style="font-style:normal;font-variant:normal;font-weight:normal;font-stretch:normal;font-size:36px;line-height:125%;font-family:Arial;-inkscape-font-specification:Arial;text-align:start;letter-spacing:0px;word-spacing:0px;text-anchor:start;fill:#000000;fill-opacity:1;stroke:none"
         id="path3119"
         inkscape:connector-curvature="0" />
      <path
         d="m 63.497301,48.023327 3.269531,0.404297 c -0.515643,1.91016 -1.47072,3.39258 -2.865234,4.447265 -1.394545,1.054688 -3.175794,1.582031 -5.34375,1.582032 -2.730476,-1e-6 -4.898443,-0.837891 -6.503906,-2.513672 -1.593752,-1.687496 -2.390627,-4.048822 -2.390625,-7.083985 -2e-6,-3.140612 0.808591,-5.57811 2.425781,-7.3125 1.617182,-1.734356 3.714836,-2.601543 6.292969,-2.601562 2.496081,1.9e-5 4.535141,0.849627 6.117187,2.548828 1.582014,1.699234 2.373029,4.089856 2.373047,7.171875 -1.8e-5,0.187509 -0.0059,0.468759 -0.01758,0.84375 H 52.932846 c 0.117183,2.050788 0.69726,3.621099 1.740234,4.710937 1.042962,1.089847 2.343742,1.634768 3.902344,1.634766 1.160145,2e-6 2.150378,-0.304685 2.970703,-0.914062 0.820299,-0.609372 1.470689,-1.582027 1.951172,-2.917969 M 53.108627,42.908092 h 10.423828 c -0.14064,-1.570299 -0.539077,-2.748033 -1.195312,-3.533203 -1.007826,-1.218734 -2.314465,-1.828108 -3.919922,-1.828125 -1.453134,1.7e-5 -2.677742,0.486345 -3.673828,1.458985 -0.984381,0.97267 -1.529302,2.27345 -1.634766,3.902343"
         style="font-style:normal;font-variant:normal;font-weight:normal;font-stretch:normal;font-size:36px;line-height:125%;font-family:Arial;-inkscape-font-specification:Arial;text-align:start;letter-spacing:0px;word-spacing:0px;text-anchor:start;fill:#000000;fill-opacity:1;stroke:none"
         id="path3121"
         inkscape:connector-curvature="0" />
      <path
         d="m 77.66527,51.204967 0.457031,2.794922 c -0.890634,0.1875 -1.687508,0.28125 -2.390625,0.28125 -1.148444,0 -2.039068,-0.18164 -2.671875,-0.544922 -0.632816,-0.36328 -1.078128,-0.837889 -1.335937,-1.423828 -0.257816,-0.597654 -0.386722,-1.845699 -0.386719,-3.74414 V 37.828014 h -2.320313 v -2.460937 h 2.320313 V 30.74403 l 3.146484,-1.898438 v 6.521485 h 3.181641 v 2.460937 H 74.483629 V 48.74403 c -6e-6,0.902348 0.05273,1.482426 0.158203,1.740234 0.117181,0.257816 0.298822,0.462894 0.544922,0.615235 0.257806,0.152346 0.621087,0.228518 1.089844,0.228515 0.351554,3e-6 0.814444,-0.04101 1.388672,-0.123047"
         style="font-style:normal;font-variant:normal;font-weight:normal;font-stretch:normal;font-size:36px;line-height:125%;font-family:Arial;-inkscape-font-specification:Arial;text-align:start;letter-spacing:0px;word-spacing:0px;text-anchor:start;fill:#000000;fill-opacity:1;stroke:none"
         id="path3123"
         inkscape:connector-curvature="0" />
      <path
         d="M 80.706285,54.035046 V 35.367077 h 2.847657 v 2.830078 c 0.726556,-1.324202 1.394524,-2.197248 2.003906,-2.619141 0.621086,-0.421856 1.300773,-0.632793 2.039062,-0.632812 1.066396,1.9e-5 2.15038,0.339862 3.251954,1.019531 L 89.75902,38.90028 c -0.773448,-0.457016 -1.546885,-0.685531 -2.320313,-0.685547 -0.691414,1.6e-5 -1.312507,0.210953 -1.863281,0.632813 -0.550788,0.410171 -0.943366,0.984389 -1.177734,1.722656 -0.351568,1.125012 -0.52735,2.35548 -0.527344,3.691406 v 9.773438 h -3.164063"
         style="font-style:normal;font-variant:normal;font-weight:normal;font-stretch:normal;font-size:36px;line-height:125%;font-family:Arial;-inkscape-font-specification:Arial;text-align:start;letter-spacing:0px;word-spacing:0px;text-anchor:start;fill:#000000;fill-opacity:1;stroke:none"
         id="path3125"
         inkscape:connector-curvature="0" />
      <path
         d="m 104.94652,51.732311 c -1.17189,0.996095 -2.30275,1.69922 -3.39258,2.109375 -1.07813,0.410156 -2.238288,0.615234 -3.480467,0.615235 -2.050787,-1e-6 -3.626957,-0.498047 -4.728516,-1.494141 -1.101564,-1.00781 -1.652345,-2.291012 -1.652343,-3.849609 -2e-6,-0.914057 0.205076,-1.746087 0.615234,-2.496094 0.421873,-0.761711 0.966794,-1.371085 1.634766,-1.828125 0.679683,-0.457022 1.441401,-0.802724 2.285156,-1.03711 0.621087,-0.164052 1.558586,-0.322255 2.8125,-0.474609 2.55468,-0.304676 4.43553,-0.667957 5.64258,-1.089844 0.0117,-0.433581 0.0176,-0.708971 0.0176,-0.826172 -2e-5,-1.289048 -0.29885,-2.19725 -0.89649,-2.724609 -0.8086,-0.714828 -2.00978,-1.072249 -3.60351,-1.072266 -1.488293,1.7e-5 -2.589855,0.263689 -3.304691,0.791016 -0.703131,0.51564 -1.224615,1.435561 -1.564454,2.759766 l -3.09375,-0.421875 c 0.281248,-1.324204 0.744139,-2.39061 1.388672,-3.199219 0.644528,-0.820295 1.576167,-1.447248 2.794922,-1.880859 1.218743,-0.445294 2.630851,-0.66795 4.236331,-0.667969 1.59374,1.9e-5 2.88866,0.187519 3.88476,0.5625 0.99608,0.375018 1.7285,0.849627 2.19727,1.423828 0.46873,0.562517 0.79686,1.27736 0.98437,2.144531 0.10545,0.539077 0.15819,1.511732 0.15821,2.917969 v 4.21875 c -2e-5,2.941411 0.0644,4.804691 0.19336,5.589844 0.1406,0.773439 0.41013,1.517579 0.80859,2.232422 h -3.30469 c -0.32814,-0.65625 -0.53907,-1.423827 -0.63281,-2.302735 m -0.26367,-7.066406 c -1.14845,0.468759 -2.87111,0.867196 -5.167971,1.195312 -1.300789,0.187508 -2.22071,0.398446 -2.759765,0.632813 -0.539069,0.234382 -0.955084,0.580085 -1.248047,1.037109 -0.292974,0.445319 -0.439458,0.943365 -0.439453,1.494141 -5e-6,0.843754 0.316401,1.546878 0.949218,2.109375 0.644525,0.562502 1.582024,0.843752 2.8125,0.84375 1.218738,2e-6 2.302728,-0.26367 3.251958,-0.791016 0.9492,-0.539059 1.64647,-1.27148 2.09179,-2.197265 0.33983,-0.714838 0.50975,-1.769525 0.50977,-3.164063 v -1.160156"
         style="font-style:normal;font-variant:normal;font-weight:normal;font-stretch:normal;font-size:36px;line-height:125%;font-family:Arial;-inkscape-font-specification:Arial;text-align:start;letter-spacing:0px;word-spacing:0px;text-anchor:start;fill:#000000;fill-opacity:1;stroke:none"
         id="path3127"
         inkscape:connector-curvature="0" />
      <path
         d="m 118.39379,54.035046 9.89648,-25.769532 h 3.67383 l 10.54687,25.769532 h -3.88476 l -3.00586,-7.804688 h -10.77539 l -2.83008,7.804688 h -3.62109 m 7.43554,-10.582032 h 8.73633 l -2.68945,-7.136718 c -0.82033,-2.167949 -1.4297,-3.949197 -1.82813,-5.34375 -0.32813,1.652365 -0.79102,3.292988 -1.38867,4.921875 l -2.83008,7.558593"
         style="font-style:normal;font-variant:normal;font-weight:normal;font-stretch:normal;font-size:36px;line-height:125%;font-family:Arial;-inkscape-font-specification:Arial;text-align:start;letter-spacing:0px;word-spacing:0px;text-anchor:start;fill:#000000;fill-opacity:1;stroke:none"
         id="path3129"
         inkscape:connector-curvature="0" />
      <path
         d="m 145.74535,38.970592 v -3.603515 h 3.60351 v 3.603515 h -3.60351 m 0,15.064454 V 50.43153 h 3.60351 v 3.603516 h -3.60351"
         style="font-style:normal;font-variant:normal;font-weight:normal;font-stretch:normal;font-size:36px;line-height:125%;font-family:Arial;-inkscape-font-specification:Arial;text-align:start;letter-spacing:0px;word-spacing:0px;text-anchor:start;fill:#000000;fill-opacity:1;stroke:none"
         id="path3131"
         inkscape:connector-curvature="0" />
      <path
         d="m 322.4259,194.08697 c -0.29166,-0.0547 -0.4375,-0.23697 -0.4375,-0.54688 0,-0.27342 0.14584,-0.48306 0.4375,-0.6289 3.33594,-1.27603 6.27994,-3.17186 8.83204,-5.6875 2.57029,-2.51561 4.52081,-5.41404 5.85156,-8.69532 0.0911,-0.25517 0.25519,-0.38278 0.49219,-0.38281 h 1.12109 c 0.12759,3e-5 0.24607,0.0638 0.35547,0.19141 0.12758,0.1094 0.19139,0.24612 0.1914,0.41015 -1e-5,0.65628 -0.61981,1.95967 -1.85937,3.91016 -1.22137,1.95054 -2.2422,3.39065 -3.0625,4.32031 h 27.39844 c -0.89327,-1.0755 -1.94145,-2.55206 -3.14453,-4.42968 -1.20317,-1.87758 -1.80473,-3.14451 -1.80469,-3.80079 -4e-5,-0.1458 0.0638,-0.28252 0.1914,-0.41015 0.12757,-0.12758 0.25518,-0.19138 0.38282,-0.19141 h 1.12109 c 0.23694,3e-5 0.401,0.12764 0.49219,0.38281 0.91142,2.22399 2.0872,4.26565 3.52734,6.125 1.44006,1.84117 3.09891,3.46357 4.97656,4.86719 1.87756,1.38543 3.95568,2.51564 6.23438,3.39063 0.25515,0.16407 0.38276,0.37371 0.38281,0.6289 -5e-5,0.29168 -0.12766,0.47397 -0.38281,0.54688 -3.31776,1.27605 -6.26177,3.17188 -8.83203,5.6875 -2.55213,2.4974 -4.52088,5.42318 -5.90625,8.77734 -0.0912,0.25521 -0.25525,0.38281 -0.49219,0.38281 h -1.12109 c -0.12764,0 -0.25525,-0.0729 -0.38282,-0.21875 -0.12764,-0.14583 -0.19144,-0.27343 -0.1914,-0.38281 -4e-5,-0.69271 0.62887,-2.00521 1.88672,-3.9375 1.25777,-1.95051 2.2786,-3.3815 3.0625,-4.29297 h -27.39844 c 0.72915,0.80209 1.73175,2.20574 3.00781,4.21094 1.27603,1.98698 1.91405,3.32682 1.91406,4.01953 -1e-5,0.1276 -0.0638,0.25521 -0.1914,0.38281 -0.1094,0.14584 -0.22788,0.21875 -0.35547,0.21875 h -1.12109 c -0.237,0 -0.40106,-0.1276 -0.49219,-0.38281 -1.34898,-3.3177 -3.30861,-6.23437 -5.87891,-8.75 -2.55209,-2.51561 -5.48698,-4.42056 -8.80469,-5.71484 m 3.80079,-0.54688 c 2.22395,1.20314 4.22004,2.64324 5.98828,4.32032 h 31.66406 c 1.76818,-1.67708 3.76428,-3.11718 5.98828,-4.32032 -2.224,-1.20311 -4.2201,-2.64321 -5.98828,-4.32031 h -31.66406 c -1.76824,1.6771 -3.76433,3.1172 -5.98828,4.32031"
         style="font-style:normal;font-variant:normal;font-weight:normal;font-stretch:normal;font-size:56px;line-height:125%;font-family:cmsy10;-inkscape-font-specification:cmsy10;text-align:start;letter-spacing:0px;word-spacing:0px;text-anchor:start;fill:#000000;fill-opacity:1;stroke:none"
         id="path3116"
         inkscape:connector-curvature="0" />
      <path
         inkscape:connector-curvature="0"
         id="rect2985-91"
         d="m 427.07897,178.13828 h 30.80363 v 30.80364 h -30.80363 z"
         style="fill:#666666;fill-opacity:1;stroke:#000000;stroke-width:1.38365;stroke-linejoin:round;stroke-miterlimit:4;stroke-dashoffset:0;stroke-opacity:1" />
      <path
         id="rect2985-9-5"
         d="m 459.26626,178.13828 h 30.80363 v 30.80364 h -30.80363 z"
         style="fill:#666666;fill-opacity:1;stroke:#000000;stroke-width:1.38365;stroke-linejoin:round;stroke-miterlimit:4;stroke-dashoffset:0;stroke-opacity:1"
         inkscape:connector-curvature="0" />
      <path
         id="rect2985-9-7-7"
         d="m 491.45354,178.13828 h 30.80364 v 30.80364 h -30.80364 z"
         style="fill:#666666;fill-opacity:1;stroke:#000000;stroke-width:1.38365;stroke-linejoin:round;stroke-miterlimit:4;stroke-dashoffset:0;stroke-opacity:1"
         inkscape:connector-curvature="0" />
      <path
         inkscape:connector-curvature="0"
         id="rect2985-5"
         d="m 523.64083,178.13828 h 30.80364 v 30.80364 h -30.80364 z"
         style="fill:#666666;fill-opacity:1;stroke:#000000;stroke-width:1.38365;stroke-linejoin:round;stroke-miterlimit:4;stroke-dashoffset:0;stroke-opacity:1" />
      <path
         id="rect2985-9-1"
         d="m 555.82812,178.13828 h 30.80364 v 30.80364 h -30.80364 z"
         style="fill:#ffffff;fill-opacity:1;stroke:#000000;stroke-width:1.38365;stroke-linejoin:round;stroke-miterlimit:4;stroke-dashoffset:0;stroke-opacity:1"
         inkscape:connector-curvature="0" />
      <path
         id="rect2985-9-7-0"
         d="m 588.01541,178.13828 h 30.80363 v 30.80364 h -30.80363 z"
         style="fill:#666666;fill-opacity:1;stroke:#000000;stroke-width:1.38365;stroke-linejoin:round;stroke-miterlimit:4;stroke-dashoffset:0;stroke-opacity:1"
         inkscape:connector-curvature="0" />
      <path
         inkscape:connector-curvature="0"
         id="rect2985-91-0"
         d="m 620.2027,178.13828 h 30.80363 v 30.80364 H 620.2027 Z"
         style="fill:#666666;fill-opacity:1;stroke:#000000;stroke-width:1.38365;stroke-linejoin:round;stroke-miterlimit:4;stroke-dashoffset:0;stroke-opacity:1" />
      <path
         id="rect2985-9-5-9"
         d="m 652.38998,178.13828 h 30.80364 v 30.80364 h -30.80364 z"
         style="fill:#666666;fill-opacity:1;stroke:#000000;stroke-width:1.38365;stroke-linejoin:round;stroke-miterlimit:4;stroke-dashoffset:0;stroke-opacity:1"
         inkscape:connector-curvature="0" />
      <path
         id="rect2985-9-7-7-4"
         d="m 684.57727,178.13828 h 30.80364 v 30.80364 h -30.80364 z"
         style="fill:#666666;fill-opacity:1;stroke:#000000;stroke-width:1.38365;stroke-linejoin:round;stroke-miterlimit:4;stroke-dashoffset:0;stroke-opacity:1"
         inkscape:connector-curvature="0" />
      <path
         inkscape:connector-curvature="0"
         id="rect2985-5-0"
         d="m 716.76456,178.13828 h 30.80364 v 30.80364 h -30.80364 z"
         style="fill:#666666;fill-opacity:1;stroke:#000000;stroke-width:1.38365;stroke-linejoin:round;stroke-miterlimit:4;stroke-dashoffset:0;stroke-opacity:1" />
      <path
         id="rect2985-9-1-1"
         d="m 748.95185,178.13828 h 30.80363 v 30.80364 h -30.80363 z"
         style="fill:#ffffff;fill-opacity:1;stroke:#000000;stroke-width:1.38365;stroke-linejoin:round;stroke-miterlimit:4;stroke-dashoffset:0;stroke-opacity:1"
         inkscape:connector-curvature="0" />
      <path
         id="rect2985-9-7-0-4"
         d="m 781.13914,178.13828 h 30.80363 v 30.80364 h -30.80363 z"
         style="fill:#666666;fill-opacity:1;stroke:#000000;stroke-width:1.38365;stroke-linejoin:round;stroke-miterlimit:4;stroke-dashoffset:0;stroke-opacity:1"
         inkscape:connector-curvature="0" />
      <path
         inkscape:connector-curvature="0"
         id="rect2985-85-8"
         d="m 105.606,293.1669 h 47.47385 v 47.47385 H 105.606 Z"
         style="fill:#666666;fill-opacity:1;stroke:#000000;stroke-width:2.13246;stroke-linejoin:round;stroke-miterlimit:4;stroke-dashoffset:0;stroke-opacity:1" />
      <path
         id="rect2985-9-41-1"
         d="m 155.2123,293.16691 h 47.47385 v 47.47384 H 155.2123 Z"
         style="fill:#ffffff;fill-opacity:1;stroke:#000000;stroke-width:2.13246;stroke-linejoin:round;stroke-miterlimit:4;stroke-dashoffset:0;stroke-opacity:1"
         inkscape:connector-curvature="0" />
      <path
         id="rect2985-9-7-9-9"
         d="m 204.8186,293.16691 h 47.47385 v 47.47384 H 204.8186 Z"
         style="fill:#666666;fill-opacity:1;stroke:#000000;stroke-width:2.13246;stroke-linejoin:round;stroke-miterlimit:4;stroke-dashoffset:0;stroke-opacity:1"
         inkscape:connector-curvature="0" />
      <path
         inkscape:connector-curvature="0"
         id="rect2985-5-0-3"
         d="m 813.32676,178.13828 h 30.80364 v 30.80364 h -30.80364 z"
         style="fill:#666666;fill-opacity:1;stroke:#000000;stroke-width:1.38365;stroke-linejoin:round;stroke-miterlimit:4;stroke-dashoffset:0;stroke-opacity:1" />
      <path
         id="rect2985-9-1-1-7"
         d="m 845.51405,178.13828 h 30.80363 v 30.80364 h -30.80363 z"
         style="fill:#ffffff;fill-opacity:1;stroke:#000000;stroke-width:1.38365;stroke-linejoin:round;stroke-miterlimit:4;stroke-dashoffset:0;stroke-opacity:1"
         inkscape:connector-curvature="0" />
      <path
         id="rect2985-9-7-0-4-9"
         d="m 877.70134,178.13828 h 30.80363 v 30.80364 h -30.80363 z"
         style="fill:#666666;fill-opacity:1;stroke:#000000;stroke-width:1.38365;stroke-linejoin:round;stroke-miterlimit:4;stroke-dashoffset:0;stroke-opacity:1"
         inkscape:connector-curvature="0" />
      <g
         aria-label="Datos binarios de entrada"
         id="text933"
         style="font-size:12.5px;line-height:1.25;font-family:'Bitstream Vera Sans';-inkscape-font-specification:'Bitstream Vera Sans';text-align:center;letter-spacing:0px;word-spacing:0px;text-anchor:middle;stroke-width:0.9375">
        <path
           d="m 471.09961,277.52277 v 17.00683 h 3.57422 q 4.52637,0 6.62109,-2.05078 2.10938,-2.05078 2.10938,-6.47461 0,-4.39453 -2.10938,-6.43066 -2.09472,-2.05078 -6.62109,-2.05078 z m -2.95899,-2.43164 h 6.07911 q 6.35742,0 9.33105,2.65136 2.97363,2.63672 2.97363,8.26172 0,5.6543 -2.98828,8.30567 -2.98828,2.65136 -9.3164,2.65136 h -6.07911 z"
           style="font-size:30px"
           id="path315" />
        <path
           d="m 498.58008,288.71417 q -3.2666,0 -4.52637,0.74707 -1.25976,0.74707 -1.25976,2.54883 0,1.43555 0.9375,2.28516 0.95214,0.83496 2.57812,0.83496 2.24121,0 3.58887,-1.58203 1.3623,-1.59668 1.3623,-4.2334 v -0.60059 z m 5.37597,-1.11328 v 9.36035 h -2.69531 v -2.49023 q -0.92285,1.49414 -2.2998,2.21191 -1.37696,0.70313 -3.36914,0.70313 -2.51953,0 -4.01368,-1.40625 -1.47949,-1.4209 -1.47949,-3.79395 0,-2.76855 1.84571,-4.1748 1.86035,-1.40625 5.53711,-1.40625 h 3.77929 v -0.26367 q 0,-1.86036 -1.23047,-2.8711 -1.21582,-1.02539 -3.42773,-1.02539 -1.40625,0 -2.73926,0.33692 -1.33301,0.33691 -2.56348,1.01074 v -2.49024 q 1.4795,-0.57129 2.8711,-0.84961 1.3916,-0.29297 2.70996,-0.29297 3.55957,0 5.31738,1.84571 1.75781,1.8457 1.75781,5.5957 z"
           style="font-size:30px"
           id="path317" />
        <path
           d="m 512.17383,275.89679 v 4.6582 h 5.55176 v 2.09473 h -5.55176 v 8.90625 q 0,2.00684 0.54199,2.57812 0.55664,0.57129 2.24121,0.57129 h 2.76856 v 2.25586 h -2.76856 q -3.12012,0 -4.30664,-1.15722 -1.18652,-1.17188 -1.18652,-4.24805 v -8.90625 h -1.97754 v -2.09473 h 1.97754 v -4.6582 z"
           style="font-size:30px"
           id="path319" />
        <path
           d="m 527.62793,282.44464 q -2.16797,0 -3.42773,1.69922 -1.25977,1.68457 -1.25977,4.62891 0,2.94433 1.24512,4.64355 1.25976,1.68457 3.44238,1.68457 2.15332,0 3.41309,-1.69922 1.25976,-1.69922 1.25976,-4.6289 0,-2.91504 -1.25976,-4.61426 -1.25977,-1.71387 -3.41309,-1.71387 z m 0,-2.28516 q 3.51562,0 5.52246,2.28516 2.00684,2.28516 2.00684,6.32813 0,4.02832 -2.00684,6.32812 -2.00684,2.28516 -5.52246,2.28516 -3.53027,0 -5.53711,-2.28516 -1.99219,-2.2998 -1.99219,-6.32812 0,-4.04297 1.99219,-6.32813 2.00684,-2.28516 5.53711,-2.28516 z"
           style="font-size:30px"
           id="path321" />
        <path
           d="m 550.08398,281.03839 v 2.54883 q -1.14257,-0.58594 -2.37304,-0.87891 -1.23047,-0.29297 -2.54883,-0.29297 -2.00684,0 -3.01758,0.61524 -0.99609,0.61523 -0.99609,1.8457 0,0.9375 0.71777,1.47949 0.71777,0.52735 2.88574,1.01075 l 0.92285,0.20507 q 2.8711,0.61524 4.07227,1.74317 1.21582,1.11328 1.21582,3.12012 0,2.28515 -1.81641,3.61816 -1.80175,1.33301 -4.96582,1.33301 -1.31836,0 -2.7539,-0.26367 -1.4209,-0.24903 -3.00293,-0.76172 v -2.78321 q 1.49414,0.77637 2.94433,1.17188 1.4502,0.38086 2.8711,0.38086 1.90429,0 2.92969,-0.64453 1.02539,-0.65918 1.02539,-1.84571 0,-1.09863 -0.74707,-1.68457 -0.73243,-0.58593 -3.23731,-1.12793 l -0.9375,-0.21972 q -2.50488,-0.52735 -3.61816,-1.61133 -1.11328,-1.09863 -1.11328,-3.00293 0,-2.31445 1.64062,-3.57422 1.64063,-1.25977 4.6582,-1.25977 1.49414,0 2.8125,0.21973 1.31836,0.21973 2.43164,0.65918 z"
           style="font-size:30px"
           id="path323" />
        <path
           d="m 576.56836,288.77277 q 0,-2.97364 -1.23047,-4.65821 -1.21582,-1.69922 -3.35449,-1.69922 -2.13867,0 -3.36914,1.69922 -1.21582,1.68457 -1.21582,4.65821 0,2.97363 1.21582,4.67285 1.23047,1.68457 3.36914,1.68457 2.13867,0 3.35449,-1.68457 1.23047,-1.69922 1.23047,-4.67285 z m -9.16992,-5.72754 q 0.84961,-1.46485 2.13867,-2.16797 1.30371,-0.71778 3.10547,-0.71778 2.98828,0 4.84863,2.37305 1.875,2.37305 1.875,6.24024 0,3.86718 -1.875,6.24023 -1.86035,2.37305 -4.84863,2.37305 -1.80176,0 -3.10547,-0.70313 -1.28906,-0.71777 -2.13867,-2.18261 v 2.46093 h -2.70996 v -22.79297 h 2.70996 z"
           style="font-size:30px"
           id="path325" />
        <path
           d="m 583.83398,280.55499 h 2.69532 v 16.40625 h -2.69532 z m 0,-6.38672 h 2.69532 v 3.41309 h -2.69532 z"
           style="font-size:30px"
           id="path327" />
        <path
           d="m 605.80664,287.0589 v 9.90234 h -2.69531 v -9.81445 q 0,-2.3291 -0.90821,-3.48633 -0.9082,-1.15723 -2.7246,-1.15723 -2.18262,0 -3.44239,1.39161 -1.25976,1.3916 -1.25976,3.79394 v 9.27246 h -2.70996 v -16.40625 h 2.70996 v 2.54883 q 0.96679,-1.47949 2.2705,-2.21191 1.31836,-0.73243 3.03223,-0.73243 2.82715,0 4.27735,1.75782 1.45019,1.74316 1.45019,5.1416 z"
           style="font-size:30px"
           id="path329" />
        <path
           d="m 618.63867,288.71417 q -3.2666,0 -4.52637,0.74707 -1.25976,0.74707 -1.25976,2.54883 0,1.43555 0.9375,2.28516 0.95215,0.83496 2.57812,0.83496 2.24121,0 3.58887,-1.58203 1.36231,-1.59668 1.36231,-4.2334 v -0.60059 z m 5.37598,-1.11328 v 9.36035 h -2.69531 v -2.49023 q -0.92286,1.49414 -2.29981,2.21191 -1.37695,0.70313 -3.36914,0.70313 -2.51953,0 -4.01367,-1.40625 -1.47949,-1.4209 -1.47949,-3.79395 0,-2.76855 1.8457,-4.1748 1.86035,-1.40625 5.53711,-1.40625 h 3.7793 v -0.26367 q 0,-1.86036 -1.23047,-2.8711 -1.21582,-1.02539 -3.42774,-1.02539 -1.40625,0 -2.73926,0.33692 -1.333,0.33691 -2.56347,1.01074 v -2.49024 q 1.47949,-0.57129 2.87109,-0.84961 1.3916,-0.29297 2.70996,-0.29297 3.55957,0 5.31739,1.84571 1.75781,1.8457 1.75781,5.5957 z"
           style="font-size:30px"
           id="path331" />
        <path
           d="m 639.07324,283.07452 q -0.4541,-0.26367 -0.99609,-0.38086 -0.52735,-0.13183 -1.17188,-0.13183 -2.28515,0 -3.51562,1.49414 -1.21582,1.47949 -1.21582,4.26269 v 8.64258 h -2.70996 v -16.40625 h 2.70996 v 2.54883 q 0.84961,-1.49414 2.21191,-2.21191 1.36231,-0.73243 3.31055,-0.73243 0.27832,0 0.61523,0.044 0.33692,0.0293 0.74707,0.10254 z"
           style="font-size:30px"
           id="path333" />
        <path
           d="m 641.90039,280.55499 h 2.69531 v 16.40625 h -2.69531 z m 0,-6.38672 h 2.69531 v 3.41309 h -2.69531 z"
           style="font-size:30px"
           id="path335" />
        <path
           d="m 656.59277,282.44464 q -2.16797,0 -3.42773,1.69922 -1.25977,1.68457 -1.25977,4.62891 0,2.94433 1.24512,4.64355 1.25977,1.68457 3.44238,1.68457 2.15332,0 3.41309,-1.69922 1.25976,-1.69922 1.25976,-4.6289 0,-2.91504 -1.25976,-4.61426 -1.25977,-1.71387 -3.41309,-1.71387 z m 0,-2.28516 q 3.51563,0 5.52246,2.28516 2.00684,2.28516 2.00684,6.32813 0,4.02832 -2.00684,6.32812 -2.00683,2.28516 -5.52246,2.28516 -3.53027,0 -5.53711,-2.28516 -1.99218,-2.2998 -1.99218,-6.32812 0,-4.04297 1.99218,-6.32813 2.00684,-2.28516 5.53711,-2.28516 z"
           style="font-size:30px"
           id="path337" />
        <path
           d="m 679.04883,281.03839 v 2.54883 q -1.14258,-0.58594 -2.37305,-0.87891 -1.23047,-0.29297 -2.54883,-0.29297 -2.00683,0 -3.01758,0.61524 -0.99609,0.61523 -0.99609,1.8457 0,0.9375 0.71777,1.47949 0.71778,0.52735 2.88575,1.01075 l 0.92285,0.20507 q 2.87109,0.61524 4.07226,1.74317 1.21582,1.11328 1.21582,3.12012 0,2.28515 -1.8164,3.61816 -1.80176,1.33301 -4.96582,1.33301 -1.31836,0 -2.75391,-0.26367 -1.4209,-0.24903 -3.00293,-0.76172 v -2.78321 q 1.49414,0.77637 2.94434,1.17188 1.45019,0.38086 2.87109,0.38086 1.9043,0 2.92969,-0.64453 1.02539,-0.65918 1.02539,-1.84571 0,-1.09863 -0.74707,-1.68457 -0.73242,-0.58593 -3.23731,-1.12793 l -0.9375,-0.21972 q -2.50488,-0.52735 -3.61816,-1.61133 -1.11328,-1.09863 -1.11328,-3.00293 0,-2.31445 1.64062,-3.57422 1.64063,-1.25977 4.65821,-1.25977 1.49414,0 2.8125,0.21973 1.31836,0.21973 2.43164,0.65918 z"
           style="font-size:30px"
           id="path339" />
        <path
           d="m 704.55176,283.04523 v -8.87696 h 2.69531 v 22.79297 h -2.69531 v -2.46093 q -0.84961,1.46484 -2.15332,2.18261 -1.28907,0.70313 -3.10547,0.70313 -2.97363,0 -4.84863,-2.37305 -1.86036,-2.37305 -1.86036,-6.24023 0,-3.86719 1.86036,-6.24024 1.875,-2.37305 4.84863,-2.37305 1.8164,0 3.10547,0.71778 1.30371,0.70312 2.15332,2.16797 z m -9.18457,5.72754 q 0,2.97363 1.21582,4.67285 1.23047,1.68457 3.36914,1.68457 2.13867,0 3.36914,-1.68457 1.23047,-1.69922 1.23047,-4.67285 0,-2.97364 -1.23047,-4.65821 -1.23047,-1.69922 -3.36914,-1.69922 -2.13867,0 -3.36914,1.69922 -1.21582,1.68457 -1.21582,4.65821 z"
           style="font-size:30px"
           id="path341" />
        <path
           d="m 726.83203,288.08429 v 1.31836 h -12.39258 q 0.17578,2.7832 1.66992,4.24805 1.50879,1.45019 4.18946,1.45019 1.55273,0 3.00293,-0.38086 1.46484,-0.38086 2.90039,-1.14258 v 2.54883 q -1.4502,0.61524 -2.97363,0.9375 -1.52344,0.32227 -3.09082,0.32227 -3.92579,0 -6.22559,-2.28516 -2.28516,-2.28516 -2.28516,-6.18164 0,-4.02832 2.16797,-6.38672 2.18262,-2.37305 5.87403,-2.37305 3.31054,0 5.22949,2.13868 1.93359,2.12402 1.93359,5.78613 z m -2.69531,-0.79102 q -0.0293,-2.21191 -1.24512,-3.53027 -1.20117,-1.31836 -3.19336,-1.31836 -2.25586,0 -3.61816,1.27442 -1.34766,1.27441 -1.55274,3.58886 z"
           style="font-size:30px"
           id="path343" />
        <path
           d="m 754.8252,288.08429 v 1.31836 h -12.39258 q 0.17578,2.7832 1.66992,4.24805 1.50879,1.45019 4.18945,1.45019 1.55274,0 3.00293,-0.38086 1.46485,-0.38086 2.90039,-1.14258 v 2.54883 q -1.45019,0.61524 -2.97363,0.9375 -1.52344,0.32227 -3.09082,0.32227 -3.92578,0 -6.22559,-2.28516 -2.28515,-2.28516 -2.28515,-6.18164 0,-4.02832 2.16797,-6.38672 2.18261,-2.37305 5.87402,-2.37305 3.31055,0 5.22949,2.13868 1.9336,2.12402 1.9336,5.78613 z m -2.69532,-0.79102 q -0.0293,-2.21191 -1.24511,-3.53027 -1.20118,-1.31836 -3.19336,-1.31836 -2.25586,0 -3.61817,1.27442 -1.34765,1.27441 -1.55273,3.58886 z"
           style="font-size:30px"
           id="path345" />
        <path
           d="m 772.88672,287.0589 v 9.90234 h -2.69531 v -9.81445 q 0,-2.3291 -0.90821,-3.48633 -0.9082,-1.15723 -2.72461,-1.15723 -2.18261,0 -3.44238,1.39161 -1.25976,1.3916 -1.25976,3.79394 v 9.27246 h -2.70997 v -16.40625 h 2.70997 v 2.54883 q 0.96679,-1.47949 2.2705,-2.21191 1.31836,-0.73243 3.03223,-0.73243 2.82715,0 4.27734,1.75782 1.4502,1.74316 1.4502,5.1416 z"
           style="font-size:30px"
           id="path347" />
        <path
           d="m 780.92871,275.89679 v 4.6582 h 5.55176 v 2.09473 h -5.55176 v 8.90625 q 0,2.00684 0.54199,2.57812 0.55664,0.57129 2.24121,0.57129 h 2.76856 v 2.25586 h -2.76856 q -3.12011,0 -4.30664,-1.15722 -1.18652,-1.17188 -1.18652,-4.24805 v -8.90625 h -1.97754 v -2.09473 h 1.97754 v -4.6582 z"
           style="font-size:30px"
           id="path349" />
        <path
           d="m 799.53223,283.07452 q -0.45411,-0.26367 -0.9961,-0.38086 -0.52734,-0.13183 -1.17187,-0.13183 -2.28516,0 -3.51563,1.49414 -1.21582,1.47949 -1.21582,4.26269 v 8.64258 h -2.70996 v -16.40625 h 2.70996 v 2.54883 q 0.84961,-1.49414 2.21192,-2.21191 1.3623,-0.73243 3.31054,-0.73243 0.27832,0 0.61524,0.044 0.33691,0.0293 0.74707,0.10254 z"
           style="font-size:30px"
           id="path351" />
        <path
           d="m 809.81543,288.71417 q -3.2666,0 -4.52637,0.74707 -1.25976,0.74707 -1.25976,2.54883 0,1.43555 0.9375,2.28516 0.95215,0.83496 2.57812,0.83496 2.24121,0 3.58887,-1.58203 1.3623,-1.59668 1.3623,-4.2334 v -0.60059 z m 5.37598,-1.11328 v 9.36035 h -2.69532 v -2.49023 q -0.92285,1.49414 -2.2998,2.21191 -1.37695,0.70313 -3.36914,0.70313 -2.51953,0 -4.01367,-1.40625 -1.4795,-1.4209 -1.4795,-3.79395 0,-2.76855 1.84571,-4.1748 1.86035,-1.40625 5.53711,-1.40625 h 3.77929 v -0.26367 q 0,-1.86036 -1.23047,-2.8711 -1.21582,-1.02539 -3.42773,-1.02539 -1.40625,0 -2.73926,0.33692 -1.33301,0.33691 -2.56347,1.01074 v -2.49024 q 1.47949,-0.57129 2.87109,-0.84961 1.3916,-0.29297 2.70996,-0.29297 3.55957,0 5.31738,1.84571 1.75782,1.8457 1.75782,5.5957 z"
           style="font-size:30px"
           id="path353" />
        <path
           d="m 831.53906,283.04523 v -8.87696 h 2.69531 v 22.79297 h -2.69531 v -2.46093 q -0.84961,1.46484 -2.15332,2.18261 -1.28906,0.70313 -3.10547,0.70313 -2.97363,0 -4.84863,-2.37305 -1.86035,-2.37305 -1.86035,-6.24023 0,-3.86719 1.86035,-6.24024 1.875,-2.37305 4.84863,-2.37305 1.81641,0 3.10547,0.71778 1.30371,0.70312 2.15332,2.16797 z m -9.18457,5.72754 q 0,2.97363 1.21582,4.67285 1.23047,1.68457 3.36914,1.68457 2.13867,0 3.36914,-1.68457 1.23047,-1.69922 1.23047,-4.67285 0,-2.97364 -1.23047,-4.65821 -1.23047,-1.69922 -3.36914,-1.69922 -2.13867,0 -3.36914,1.69922 -1.21582,1.68457 -1.21582,4.65821 z"
           style="font-size:30px"
           id="path355" />
        <path
           d="m 847.24219,288.71417 q -3.2666,0 -4.52637,0.74707 -1.25977,0.74707 -1.25977,2.54883 0,1.43555 0.9375,2.28516 0.95215,0.83496 2.57813,0.83496 2.24121,0 3.58887,-1.58203 1.3623,-1.59668 1.3623,-4.2334 v -0.60059 z m 5.37597,-1.11328 v 9.36035 h -2.69531 v -2.49023 q -0.92285,1.49414 -2.2998,2.21191 -1.37696,0.70313 -3.36914,0.70313 -2.51954,0 -4.01368,-1.40625 -1.47949,-1.4209 -1.47949,-3.79395 0,-2.76855 1.84571,-4.1748 1.86035,-1.40625 5.5371,-1.40625 h 3.7793 v -0.26367 q 0,-1.86036 -1.23047,-2.8711 -1.21582,-1.02539 -3.42773,-1.02539 -1.40625,0 -2.73926,0.33692 -1.33301,0.33691 -2.56348,1.01074 v -2.49024 q 1.4795,-0.57129 2.8711,-0.84961 1.3916,-0.29297 2.70996,-0.29297 3.55957,0 5.31738,1.84571 1.75781,1.8457 1.75781,5.5957 z"
           style="font-size:30px"
           id="path357" />
      </g>
    </g>
  </g>
</svg>
