<?xml version="1.0" encoding="UTF-8" standalone="no"?>
<!-- Created with Inkscape (http://www.inkscape.org/) -->

<svg
   width="391.98019"
   height="491.91165"
   id="svg2"
   version="1.1"
   inkscape:version="1.2.1 (9c6d41e410, 2022-07-14)"
   sodipodi:docname="intro_fig26.svg"
   viewBox="0 0 367.48142 461.16715"
   xmlns:inkscape="http://www.inkscape.org/namespaces/inkscape"
   xmlns:sodipodi="http://sodipodi.sourceforge.net/DTD/sodipodi-0.dtd"
   xmlns="http://www.w3.org/2000/svg"
   xmlns:svg="http://www.w3.org/2000/svg"
   xmlns:rdf="http://www.w3.org/1999/02/22-rdf-syntax-ns#"
   xmlns:cc="http://creativecommons.org/ns#"
   xmlns:dc="http://purl.org/dc/elements/1.1/">
  <defs
     id="defs4">
    <marker
       inkscape:stockid="Arrow1Mend"
       orient="auto"
       refY="0"
       refX="0"
       id="Arrow1Mend"
       style="overflow:visible">
      <path
         id="path3768"
         d="M 0,0 5,-5 -12.5,0 5,5 Z"
         style="fill-rule:evenodd;stroke:#000000;stroke-width:1pt"
         transform="matrix(-0.4,0,0,-0.4,-4,0)"
         inkscape:connector-curvature="0" />
    </marker>
    <marker
       inkscape:stockid="Arrow1Mend"
       orient="auto"
       refY="0"
       refX="0"
       id="Arrow1Mend-9"
       style="overflow:visible">
      <path
         inkscape:connector-curvature="0"
         id="path3768-3"
         d="M 0,0 5,-5 -12.5,0 5,5 Z"
         style="fill-rule:evenodd;stroke:#000000;stroke-width:1pt"
         transform="matrix(-0.4,0,0,-0.4,-4,0)" />
    </marker>
    <marker
       inkscape:stockid="Arrow1Mend"
       orient="auto"
       refY="0"
       refX="0"
       id="Arrow1Mend-9-2"
       style="overflow:visible">
      <path
         inkscape:connector-curvature="0"
         id="path3768-3-3"
         d="M 0,0 5,-5 -12.5,0 5,5 Z"
         style="fill-rule:evenodd;stroke:#000000;stroke-width:1pt"
         transform="matrix(-0.4,0,0,-0.4,-4,0)" />
    </marker>
    <marker
       inkscape:stockid="Arrow1Mend"
       orient="auto"
       refY="0"
       refX="0"
       id="Arrow1Mend-9-0"
       style="overflow:visible">
      <path
         inkscape:connector-curvature="0"
         id="path3768-3-0"
         d="M 0,0 5,-5 -12.5,0 5,5 Z"
         style="fill-rule:evenodd;stroke:#000000;stroke-width:1pt"
         transform="matrix(-0.4,0,0,-0.4,-4,0)" />
    </marker>
    <marker
       inkscape:stockid="Arrow1Mend"
       orient="auto"
       refY="0"
       refX="0"
       id="Arrow1Mend-9-0-8"
       style="overflow:visible">
      <path
         inkscape:connector-curvature="0"
         id="path3768-3-0-7"
         d="M 0,0 5,-5 -12.5,0 5,5 Z"
         style="fill-rule:evenodd;stroke:#000000;stroke-width:1pt"
         transform="matrix(-0.4,0,0,-0.4,-4,0)" />
    </marker>
    <marker
       inkscape:stockid="Arrow1Mend"
       orient="auto"
       refY="0"
       refX="0"
       id="Arrow1Mend-9-0-9"
       style="overflow:visible">
      <path
         inkscape:connector-curvature="0"
         id="path3768-3-0-0"
         d="M 0,0 5,-5 -12.5,0 5,5 Z"
         style="fill-rule:evenodd;stroke:#000000;stroke-width:1pt"
         transform="matrix(-0.4,0,0,-0.4,-4,0)" />
    </marker>
    <marker
       inkscape:stockid="Arrow1Mend"
       orient="auto"
       refY="0"
       refX="0"
       id="Arrow1Mend-9-0-2"
       style="overflow:visible">
      <path
         inkscape:connector-curvature="0"
         id="path3768-3-0-5"
         d="M 0,0 5,-5 -12.5,0 5,5 Z"
         style="fill-rule:evenodd;stroke:#000000;stroke-width:1pt"
         transform="matrix(-0.4,0,0,-0.4,-4,0)" />
    </marker>
    <marker
       inkscape:stockid="Arrow1Mend"
       orient="auto"
       refY="0"
       refX="0"
       id="Arrow1Mend-9-0-9-2"
       style="overflow:visible">
      <path
         inkscape:connector-curvature="0"
         id="path3768-3-0-0-2"
         d="M 0,0 5,-5 -12.5,0 5,5 Z"
         style="fill-rule:evenodd;stroke:#000000;stroke-width:1pt"
         transform="matrix(-0.4,0,0,-0.4,-4,0)" />
    </marker>
    <marker
       inkscape:stockid="Arrow1Mend"
       orient="auto"
       refY="0"
       refX="0"
       id="Arrow1Mend-9-6"
       style="overflow:visible">
      <path
         inkscape:connector-curvature="0"
         id="path3768-3-8"
         d="M 0,0 5,-5 -12.5,0 5,5 Z"
         style="fill-rule:evenodd;stroke:#000000;stroke-width:1pt"
         transform="matrix(-0.4,0,0,-0.4,-4,0)" />
    </marker>
    <marker
       inkscape:stockid="Arrow1Mend"
       orient="auto"
       refY="0"
       refX="0"
       id="Arrow1Mend-9-07"
       style="overflow:visible">
      <path
         inkscape:connector-curvature="0"
         id="path3768-3-04"
         d="M 0,0 5,-5 -12.5,0 5,5 Z"
         style="fill-rule:evenodd;stroke:#000000;stroke-width:1pt"
         transform="matrix(-0.4,0,0,-0.4,-4,0)" />
    </marker>
    <marker
       inkscape:stockid="Arrow1Mend"
       orient="auto"
       refY="0"
       refX="0"
       id="marker3368"
       style="overflow:visible">
      <path
         inkscape:connector-curvature="0"
         id="path3370"
         d="M 0,0 5,-5 -12.5,0 5,5 Z"
         style="fill-rule:evenodd;stroke:#000000;stroke-width:1pt"
         transform="matrix(-0.4,0,0,-0.4,-4,0)" />
    </marker>
    <marker
       inkscape:stockid="Arrow1Mend"
       orient="auto"
       refY="0"
       refX="0"
       id="Arrow1Mend-9-0-6"
       style="overflow:visible">
      <path
         inkscape:connector-curvature="0"
         id="path3768-3-0-8"
         d="M 0,0 5,-5 -12.5,0 5,5 Z"
         style="fill-rule:evenodd;stroke:#000000;stroke-width:1pt"
         transform="matrix(-0.4,0,0,-0.4,-4,0)" />
    </marker>
    <marker
       inkscape:stockid="Arrow1Mend"
       orient="auto"
       refY="0"
       refX="0"
       id="marker3374"
       style="overflow:visible">
      <path
         inkscape:connector-curvature="0"
         id="path3376"
         d="M 0,0 5,-5 -12.5,0 5,5 Z"
         style="fill-rule:evenodd;stroke:#000000;stroke-width:1pt"
         transform="matrix(-0.4,0,0,-0.4,-4,0)" />
    </marker>
    <marker
       inkscape:stockid="Arrow1Mend"
       orient="auto"
       refY="0"
       refX="0"
       id="marker3378"
       style="overflow:visible">
      <path
         inkscape:connector-curvature="0"
         id="path3380"
         d="M 0,0 5,-5 -12.5,0 5,5 Z"
         style="fill-rule:evenodd;stroke:#000000;stroke-width:1pt"
         transform="matrix(-0.4,0,0,-0.4,-4,0)" />
    </marker>
    <marker
       inkscape:stockid="Arrow1Mend"
       orient="auto"
       refY="0"
       refX="0"
       id="marker3382"
       style="overflow:visible">
      <path
         inkscape:connector-curvature="0"
         id="path3384"
         d="M 0,0 5,-5 -12.5,0 5,5 Z"
         style="fill-rule:evenodd;stroke:#000000;stroke-width:1pt"
         transform="matrix(-0.4,0,0,-0.4,-4,0)" />
    </marker>
    <marker
       inkscape:stockid="Arrow1Mend"
       orient="auto"
       refY="0"
       refX="0"
       id="Arrow1Mend-9-0-9-6"
       style="overflow:visible">
      <path
         inkscape:connector-curvature="0"
         id="path3768-3-0-0-4"
         d="M 0,0 5,-5 -12.5,0 5,5 Z"
         style="fill-rule:evenodd;stroke:#000000;stroke-width:1pt"
         transform="matrix(-0.4,0,0,-0.4,-4,0)" />
    </marker>
    <marker
       inkscape:stockid="Arrow1Mend"
       orient="auto"
       refY="0"
       refX="0"
       id="marker3512"
       style="overflow:visible">
      <path
         inkscape:connector-curvature="0"
         id="path3514"
         d="M 0,0 5,-5 -12.5,0 5,5 Z"
         style="fill-rule:evenodd;stroke:#000000;stroke-width:1pt"
         transform="matrix(-0.4,0,0,-0.4,-4,0)" />
    </marker>
    <marker
       inkscape:stockid="Arrow1Mend"
       orient="auto"
       refY="0"
       refX="0"
       id="Arrow1Mend-9-0-0"
       style="overflow:visible">
      <path
         inkscape:connector-curvature="0"
         id="path3768-3-0-88"
         d="M 0,0 5,-5 -12.5,0 5,5 Z"
         style="fill-rule:evenodd;stroke:#000000;stroke-width:1pt"
         transform="matrix(-0.4,0,0,-0.4,-4,0)" />
    </marker>
    <marker
       inkscape:stockid="Arrow1Mend"
       orient="auto"
       refY="0"
       refX="0"
       id="Arrow1Mend-9-0-7"
       style="overflow:visible">
      <path
         inkscape:connector-curvature="0"
         id="path3768-3-0-08"
         d="M 0,0 5,-5 -12.5,0 5,5 Z"
         style="fill-rule:evenodd;stroke:#000000;stroke-width:1pt"
         transform="matrix(-0.4,0,0,-0.4,-4,0)" />
    </marker>
    <marker
       inkscape:stockid="Arrow1Mend"
       orient="auto"
       refY="0"
       refX="0"
       id="Arrow1Mend-9-0-9-4"
       style="overflow:visible">
      <path
         inkscape:connector-curvature="0"
         id="path3768-3-0-0-47"
         d="M 0,0 5,-5 -12.5,0 5,5 Z"
         style="fill-rule:evenodd;stroke:#000000;stroke-width:1pt"
         transform="matrix(-0.4,0,0,-0.4,-4,0)" />
    </marker>
    <marker
       inkscape:stockid="Arrow1Mend"
       orient="auto"
       refY="0"
       refX="0"
       id="Arrow1Mend-9-0-9-0"
       style="overflow:visible">
      <path
         inkscape:connector-curvature="0"
         id="path3768-3-0-0-43"
         d="M 0,0 5,-5 -12.5,0 5,5 Z"
         style="fill-rule:evenodd;stroke:#000000;stroke-width:1pt"
         transform="matrix(-0.4,0,0,-0.4,-4,0)" />
    </marker>
  </defs>
  <sodipodi:namedview
     id="base"
     pagecolor="#ffffff"
     bordercolor="#666666"
     borderopacity="1.0"
     inkscape:pageopacity="0.0"
     inkscape:pageshadow="2"
     inkscape:zoom="0.77576249"
     inkscape:cx="172.73328"
     inkscape:cy="288.10364"
     inkscape:document-units="px"
     inkscape:current-layer="layer1"
     showgrid="false"
     inkscape:snap-to-guides="false"
     inkscape:snap-center="true"
     inkscape:window-width="2580"
     inkscape:window-height="1050"
     inkscape:window-x="1597"
     inkscape:window-y="0"
     inkscape:window-maximized="1"
     fit-margin-top="0"
     fit-margin-left="0"
     fit-margin-right="0"
     fit-margin-bottom="0"
     inkscape:showpageshadow="2"
     inkscape:pagecheckerboard="0"
     inkscape:deskcolor="#d1d1d1" />
  <metadata
     id="metadata7">
    <rdf:RDF>
      <cc:Work
         rdf:about="">
        <dc:format>image/svg+xml</dc:format>
        <dc:type
           rdf:resource="http://purl.org/dc/dcmitype/StillImage" />
      </cc:Work>
    </rdf:RDF>
  </metadata>
  <g
     inkscape:label="Layer 1"
     inkscape:groupmode="layer"
     id="layer1"
     transform="translate(-187.80575,-76.301729)">
    <g
       id="g865">
      <path
         inkscape:connector-curvature="0"
         id="path4432-5"
         d="m 497.34799,205.43774 c 0,9.1104 -7.38545,16.49586 -16.49585,16.49586 -9.11041,0 -16.49585,-7.38546 -16.49585,-16.49586 0,-9.1104 7.38544,-16.49584 16.49585,-16.49584 9.1104,0 16.49585,7.38544 16.49585,16.49584 z"
         style="fill:#ff9955;fill-opacity:1;stroke:#000000;stroke-width:2.44137;stroke-linecap:round;stroke-miterlimit:4;stroke-dashoffset:0;stroke-opacity:1" />
      <path
         inkscape:connector-curvature="0"
         id="path4057-1"
         d="m 497.80883,205.43774 h 52.59043"
         style="fill:none;stroke:#000000;stroke-width:2.48031;stroke-linecap:butt;stroke-linejoin:miter;stroke-miterlimit:4;stroke-dasharray:none;stroke-opacity:1;marker-end:url(#Arrow1Mend-9)" />
      <path
         d="m 195.75399,267.15461 c 0.57421,0.60939 1.00781,1.21877 1.30078,1.82813 0.21093,0.42189 0.55664,1.52931 1.03711,3.32226 l 1.54688,-2.32031 c 0.41014,-0.56249 0.90819,-1.09569 1.49414,-1.59961 0.58592,-0.51561 1.10155,-0.86717 1.54687,-1.05469 0.28124,-0.11717 0.59179,-0.17576 0.93164,-0.17578 0.5039,2e-5 0.90233,0.13478 1.19532,0.4043 0.30467,0.26954 0.45701,0.59767 0.45703,0.98437 -2e-5,0.44533 -0.0879,0.75002 -0.26367,0.91407 -0.32814,0.29298 -0.70314,0.43946 -1.125,0.43945 -0.24611,1e-5 -0.50978,-0.0527 -0.79102,-0.1582 -0.55079,-0.18749 -0.91993,-0.28124 -1.10742,-0.28125 -0.28126,10e-6 -0.61525,0.16407 -1.00196,0.49218 -0.72657,0.60939 -1.59375,1.78712 -2.60156,3.53321 l 1.44141,6.04687 c 0.22265,0.92579 0.41015,1.48243 0.5625,1.66992 0.15233,0.17579 0.30467,0.26368 0.45703,0.26368 0.24608,0 0.53319,-0.13477 0.86133,-0.4043 0.64452,-0.53906 1.1953,-1.24219 1.65234,-2.10938 l 0.61524,0.31641 c -0.7383,1.38281 -1.6758,2.53125 -2.8125,3.44531 -0.64455,0.51563 -1.18947,0.77344 -1.63477,0.77344 -0.65626,0 -1.17774,-0.36914 -1.56445,-1.10742 -0.2461,-0.45703 -0.75587,-2.42578 -1.5293,-5.90625 -1.82813,3.17578 -3.29297,5.2207 -4.39453,6.13476 -0.71485,0.58594 -1.40625,0.87891 -2.07422,0.87891 -0.46875,0 -0.89648,-0.16992 -1.2832,-0.50977 -0.28125,-0.25781 -0.42188,-0.60351 -0.42188,-1.03711 0,-0.38671 0.12891,-0.70898 0.38672,-0.96679 0.25782,-0.25781 0.57422,-0.38672 0.94922,-0.38672 0.375,0 0.77344,0.1875 1.19531,0.5625 0.30469,0.26953 0.53906,0.4043 0.70313,0.4043 0.14062,0 0.32226,-0.0937 0.54492,-0.28125 0.55078,-0.44531 1.30078,-1.40625 2.25,-2.88282 0.94921,-1.47655 1.57031,-2.54296 1.86328,-3.19922 -0.72657,-2.84764 -1.11915,-4.3535 -1.17773,-4.51757 -0.26954,-0.76171 -0.6211,-1.30077 -1.05469,-1.61719 -0.4336,-0.31639 -1.07227,-0.4746 -1.91602,-0.47461 -0.26953,10e-6 -0.58008,0.0117 -0.93164,0.0352 v -0.63282 l 4.69336,-0.82617"
         style="font-style:italic;font-weight:normal;font-size:36px;line-height:125%;font-family:'Times New Roman';-inkscape-font-specification:'Times New Roman, Italic';letter-spacing:0px;word-spacing:0px;fill:#000000;fill-opacity:1;stroke:none"
         id="path4239"
         inkscape:connector-curvature="0" />
      <path
         d="m 196.81161,171.11712 c 0.57421,0.60939 1.00781,1.21877 1.30078,1.82813 0.21093,0.42189 0.55664,1.52931 1.03711,3.32226 l 1.54688,-2.32031 c 0.41014,-0.56249 0.90819,-1.09569 1.49414,-1.59961 0.58592,-0.51561 1.10155,-0.86717 1.54687,-1.05469 0.28124,-0.11717 0.59179,-0.17576 0.93164,-0.17578 0.5039,2e-5 0.90233,0.13478 1.19532,0.4043 0.30467,0.26954 0.45701,0.59767 0.45703,0.98437 -2e-5,0.44533 -0.0879,0.75002 -0.26367,0.91407 -0.32814,0.29298 -0.70314,0.43946 -1.125,0.43945 -0.24611,1e-5 -0.50978,-0.0527 -0.79102,-0.1582 -0.55079,-0.18749 -0.91993,-0.28124 -1.10742,-0.28125 -0.28126,1e-5 -0.61525,0.16407 -1.00196,0.49218 -0.72657,0.60939 -1.59375,1.78712 -2.60156,3.53321 l 1.44141,6.04687 c 0.22265,0.92579 0.41015,1.48243 0.5625,1.66992 0.15233,0.17579 0.30468,0.26368 0.45703,0.26368 0.24608,0 0.53319,-0.13477 0.86133,-0.4043 0.64452,-0.53906 1.1953,-1.24219 1.65234,-2.10938 l 0.61524,0.31641 c -0.7383,1.38281 -1.6758,2.53125 -2.8125,3.44531 -0.64455,0.51563 -1.18947,0.77344 -1.63477,0.77344 -0.65626,0 -1.17774,-0.36914 -1.56445,-1.10742 -0.2461,-0.45703 -0.75587,-2.42578 -1.5293,-5.90625 -1.82813,3.17578 -3.29297,5.2207 -4.39453,6.13476 -0.71485,0.58594 -1.40625,0.87891 -2.07422,0.87891 -0.46875,0 -0.89648,-0.16992 -1.2832,-0.50977 -0.28125,-0.25781 -0.42188,-0.60351 -0.42188,-1.03711 0,-0.38671 0.12891,-0.70898 0.38672,-0.96679 0.25781,-0.25781 0.57422,-0.38672 0.94922,-0.38672 0.375,0 0.77344,0.1875 1.19531,0.5625 0.30469,0.26953 0.53906,0.4043 0.70313,0.4043 0.14062,0 0.32226,-0.0937 0.54492,-0.28125 0.55078,-0.44531 1.30078,-1.40625 2.25,-2.88282 0.94921,-1.47655 1.57031,-2.54296 1.86328,-3.19922 -0.72657,-2.84764 -1.11914,-4.3535 -1.17773,-4.51757 -0.26954,-0.76171 -0.6211,-1.30077 -1.05469,-1.61719 -0.4336,-0.31639 -1.07227,-0.4746 -1.91602,-0.47461 -0.26953,1e-5 -0.58008,0.0117 -0.93164,0.0352 v -0.63282 l 4.69336,-0.82617"
         style="font-style:italic;font-weight:normal;font-size:36px;line-height:125%;font-family:'Times New Roman';-inkscape-font-specification:'Times New Roman, Italic';letter-spacing:0px;word-spacing:0px;fill:#000000;fill-opacity:1;stroke:none"
         id="path4239-9"
         inkscape:connector-curvature="0" />
      <path
         d="m 217.19566,287.902 -1.11328,3.0586 h -9.375 v -0.4336 c 2.75781,-2.51562 4.69921,-4.57031 5.82422,-6.16406 1.12499,-1.59374 1.68749,-3.05077 1.6875,-4.37109 -1e-5,-1.00781 -0.3086,-1.83593 -0.92578,-2.48438 -0.6172,-0.64842 -1.35548,-0.97264 -2.21485,-0.97266 -0.78125,2e-5 -1.48438,0.23049 -2.10937,0.69141 -0.61719,0.45314 -1.07422,1.12111 -1.3711,2.00391 h -0.43359 c 0.19531,-1.4453 0.69531,-2.55468 1.5,-3.32813 0.8125,-0.77342 1.82421,-1.16014 3.03516,-1.16015 1.28905,10e-6 2.36327,0.41407 3.22265,1.24218 0.86718,0.82814 1.30077,1.8047 1.30078,2.92969 -1e-5,0.8047 -0.18751,1.60939 -0.5625,2.41406 -0.57813,1.26564 -1.51563,2.60548 -2.8125,4.01953 -1.94531,2.12501 -3.16016,3.40626 -3.64453,3.84375 h 4.14844 c 0.84374,1e-5 1.43359,-0.0312 1.76953,-0.0937 0.34374,-0.0625 0.65234,-0.18749 0.92578,-0.375 0.27343,-0.19531 0.51171,-0.46874 0.71485,-0.82031 h 0.43359"
         style="font-style:normal;font-weight:normal;font-size:24px;line-height:125%;font-family:'Times New Roman';-inkscape-font-specification:'Times New Roman';letter-spacing:0px;word-spacing:0px;fill:#000000;fill-opacity:1;stroke:none"
         id="path4258"
         inkscape:connector-curvature="0" />
      <path
         d="m 209.88023,180.59108 3.86719,-1.88672 h 0.38672 v 13.41797 c -1e-5,0.89063 0.0352,1.44532 0.10547,1.66406 0.0781,0.21875 0.23436,0.38672 0.46875,0.50391 0.23436,0.11719 0.71093,0.18359 1.42968,0.19922 v 0.43359 h -5.97656 v -0.43359 c 0.75,-0.0156 1.23437,-0.0781 1.45313,-0.1875 0.21874,-0.11719 0.37109,-0.26953 0.45703,-0.45703 0.0859,-0.19531 0.1289,-0.76953 0.1289,-1.72266 v -8.57812 c 0,-1.15624 -0.0391,-1.89843 -0.11718,-2.22657 -0.0547,-0.24998 -0.15626,-0.43358 -0.30469,-0.55078 -0.14063,-0.11717 -0.3125,-0.17576 -0.51563,-0.17578 -0.28906,2e-5 -0.6914,0.12111 -1.20703,0.36328 l -0.17578,-0.36328"
         style="font-style:normal;font-weight:normal;font-size:24px;line-height:125%;font-family:'Times New Roman';-inkscape-font-specification:'Times New Roman';letter-spacing:0px;word-spacing:0px;fill:#000000;fill-opacity:1;stroke:none"
         id="path4305"
         inkscape:connector-curvature="0" />
      <path
         id="path4332"
         d="m 305.00559,181.87821 c 0,5.04239 -4.08766,9.13006 -9.13006,9.13006 -5.0424,0 -9.13006,-4.08767 -9.13006,-9.13006 0,-5.0424 4.08766,-9.13007 9.13006,-9.13007 5.0424,0 9.13006,4.08767 9.13006,9.13007 z"
         style="fill:#008080;stroke:#000000;stroke-width:1.73987;stroke-miterlimit:4;stroke-dashoffset:0;stroke-opacity:1"
         inkscape:connector-curvature="0" />
      <path
         id="path4332-81"
         d="m 305.00559,276.9973 c 0,5.04239 -4.08766,9.13006 -9.13006,9.13006 -5.0424,0 -9.13006,-4.08767 -9.13006,-9.13006 0,-5.0424 4.08766,-9.13007 9.13006,-9.13007 5.0424,0 9.13006,4.08767 9.13006,9.13007 z"
         style="fill:#008080;stroke:#000000;stroke-width:1.73987;stroke-miterlimit:4;stroke-dashoffset:0;stroke-opacity:1"
         inkscape:connector-curvature="0" />
      <path
         inkscape:connector-curvature="0"
         id="path4057"
         d="m 230.18471,181.8782 h 52.59043"
         style="fill:none;stroke:#000000;stroke-width:2.48031;stroke-linecap:butt;stroke-linejoin:miter;stroke-miterlimit:4;stroke-dasharray:none;stroke-opacity:1;marker-end:url(#Arrow1Mend-9)" />
      <path
         inkscape:connector-curvature="0"
         id="path4057-8"
         d="m 230.18471,276.9973 h 52.59043"
         style="fill:none;stroke:#000000;stroke-width:2.48031;stroke-linecap:butt;stroke-linejoin:miter;stroke-miterlimit:4;stroke-dasharray:none;stroke-opacity:1;marker-end:url(#Arrow1Mend-9)" />
      <path
         sodipodi:nodetypes="cc"
         inkscape:connector-curvature="0"
         id="path4539"
         d="m 305.26666,181.5814 60.06062,-48.44732"
         style="fill:none;stroke:#000000;stroke-width:2.48031;stroke-linecap:butt;stroke-linejoin:miter;stroke-miterlimit:4;stroke-dasharray:none;stroke-opacity:1;marker-end:url(#Arrow1Mend-9-0)" />
      <path
         sodipodi:nodetypes="cc"
         inkscape:connector-curvature="0"
         id="path4541"
         d="m 304.51621,184.58319 67.33873,77.40459"
         style="fill:none;stroke:#000000;stroke-width:2.48031;stroke-linecap:butt;stroke-linejoin:miter;stroke-miterlimit:4;stroke-dasharray:none;stroke-opacity:1;marker-end:url(#Arrow1Mend-9-0)" />
      <path
         sodipodi:nodetypes="cc"
         inkscape:connector-curvature="0"
         id="path4539-9"
         d="m 305.26666,278.643 61.61113,-1.16912"
         style="fill:none;stroke:#000000;stroke-width:2.48031;stroke-linecap:butt;stroke-linejoin:miter;stroke-miterlimit:4;stroke-dasharray:none;stroke-opacity:1;marker-end:url(#Arrow1Mend-9-0)" />
      <path
         sodipodi:nodetypes="cc"
         inkscape:connector-curvature="0"
         id="path4541-7"
         d="M 304.51621,274.46045 367.2034,139.68683"
         style="fill:none;stroke:#000000;stroke-width:2.48031;stroke-linecap:butt;stroke-linejoin:miter;stroke-miterlimit:4;stroke-dasharray:none;stroke-opacity:1;marker-end:url(#Arrow1Mend-9-0)" />
      <path
         inkscape:connector-curvature="0"
         id="path4779"
         d="m 398.19828,132.06618 64.53849,64.5385"
         style="fill:none;stroke:#000000;stroke-width:2.48031;stroke-linecap:butt;stroke-linejoin:miter;stroke-miterlimit:4;stroke-dasharray:none;stroke-opacity:1;marker-end:url(#Arrow1Mend-9-0-9)" />
      <path
         inkscape:connector-curvature="0"
         id="path4779-0"
         d="m 398.19828,282.0817 64.53849,-64.5385"
         style="fill:none;stroke:#000000;stroke-width:2.48031;stroke-linecap:butt;stroke-linejoin:miter;stroke-miterlimit:4;stroke-dasharray:none;stroke-opacity:1;marker-end:url(#Arrow1Mend-9-0-9)" />
      <path
         inkscape:connector-curvature="0"
         id="path4432"
         d="m 399.1961,133.5805 c 0,9.1104 -7.38545,16.49585 -16.49585,16.49585 -9.11041,0 -16.49585,-7.38545 -16.49585,-16.49585 0,-9.1104 7.38544,-16.49585 16.49585,-16.49585 9.1104,0 16.49585,7.38545 16.49585,16.49585 z"
         style="fill:#ff9955;fill-opacity:1;stroke:#000000;stroke-width:2.44137;stroke-linecap:round;stroke-miterlimit:4;stroke-dashoffset:0;stroke-opacity:1" />
      <path
         inkscape:connector-curvature="0"
         id="path4432-4"
         d="m 399.1961,277.29499 c 0,9.1104 -7.38545,16.49586 -16.49585,16.49586 -9.11041,0 -16.49585,-7.38546 -16.49585,-16.49586 0,-9.1104 7.38544,-16.49585 16.49585,-16.49585 9.1104,0 16.49585,7.38545 16.49585,16.49585 z"
         style="fill:#ff9955;fill-opacity:1;stroke:#000000;stroke-width:2.44137;stroke-linecap:round;stroke-miterlimit:4;stroke-dashoffset:0;stroke-opacity:1" />
      <path
         d="m 381.99973,76.301733 -4.93945,17.06836 c 2.1328,-3.210927 3.79687,-5.343737 4.99219,-6.398438 1.1953,-1.054672 2.33788,-1.582015 3.42773,-1.582031 0.56249,1.6e-5 1.03124,0.193375 1.40625,0.580078 0.37499,0.386734 0.56249,0.902358 0.5625,1.546875 -1e-5,0.773451 -0.16408,1.71095 -0.49219,2.8125 l -2.14453,7.365234 c -0.26954,0.890628 -0.40431,1.382815 -0.40429,1.476563 -2e-5,0.164064 0.0469,0.29883 0.14062,0.404297 0.10546,0.10547 0.22264,0.158204 0.35156,0.158203 0.15233,10e-7 0.32811,-0.07617 0.52735,-0.228516 0.66795,-0.515622 1.33006,-1.230465 1.98633,-2.144531 l 0.54492,0.333984 c -0.39846,0.621097 -0.9551,1.306643 -1.66992,2.056641 -0.70314,0.738278 -1.31252,1.253908 -1.82813,1.546878 -0.50392,0.28125 -0.95509,0.42187 -1.35351,0.42187 -0.43361,0 -0.79103,-0.14062 -1.07227,-0.42187 -0.26954,-0.26953 -0.40431,-0.6211 -0.4043,-1.05469 -10e-6,-0.515624 0.20507,-1.47656 0.61524,-2.882813 l 2.02148,-7.03125 c 0.2578,-0.878894 0.38671,-1.5703 0.38672,-2.074219 -10e-6,-0.234361 -0.0762,-0.421861 -0.22852,-0.5625 -0.14063,-0.140611 -0.32813,-0.210923 -0.5625,-0.210937 -0.33985,1.4e-5 -0.72657,0.12892 -1.16015,0.386719 -0.79689,0.4922 -1.71681,1.406262 -2.75977,2.742187 -0.28126,0.363292 -1.21876,1.828134 -2.8125,4.394531 -0.49219,0.820318 -0.89649,1.716802 -1.21289,2.689453 l -1.125,3.603519 h -2.63672 l 5.78321,-20.109378 0.61523,-2.179687 c -10e-6,-0.304665 -0.12891,-0.574196 -0.38672,-0.808594 -0.2461,-0.234352 -0.55079,-0.351539 -0.91406,-0.351563 -0.21094,2.4e-5 -0.53321,0.03518 -0.9668,0.105469 l -0.36914,0.05273 v -0.685546 l 6.08203,-1.019532"
         style="font-style:italic;font-weight:normal;font-size:36px;line-height:125%;font-family:'Times New Roman';-inkscape-font-specification:'Times New Roman, Italic';letter-spacing:0px;word-spacing:0px;fill:#000000;fill-opacity:1;stroke:none"
         id="path5013"
         inkscape:connector-curvature="0" />
      <path
         d="m 391.0783,94.324724 3.86719,-1.88672 h 0.38672 v 13.417966 c -10e-6,0.89063 0.0352,1.44532 0.10547,1.66406 0.0781,0.21875 0.23436,0.38672 0.46875,0.50391 0.23436,0.11719 0.71093,0.18359 1.42968,0.19922 v 0.43359 h -5.97656 v -0.43359 c 0.75,-0.0156 1.23437,-0.0781 1.45313,-0.1875 0.21874,-0.11719 0.37109,-0.26953 0.45703,-0.45703 0.0859,-0.19531 0.1289,-0.76953 0.1289,-1.72266 v -8.578116 c 0,-1.15624 -0.0391,-1.89843 -0.11718,-2.22657 -0.0547,-0.24998 -0.15626,-0.43358 -0.30469,-0.55078 -0.14063,-0.11717 -0.3125,-0.17576 -0.51563,-0.17578 -0.28906,2e-5 -0.6914,0.12111 -1.20703,0.36328 l -0.17578,-0.36328"
         style="font-style:normal;font-weight:normal;font-size:24px;line-height:125%;font-family:'Times New Roman';-inkscape-font-specification:'Times New Roman';letter-spacing:0px;word-spacing:0px;fill:#000000;fill-opacity:1;stroke:none"
         id="path4305-2"
         inkscape:connector-curvature="0" />
      <path
         d="m 380.94211,220.95133 -4.93945,17.06836 c 2.1328,-3.21092 3.79687,-5.34373 4.99219,-6.39844 1.1953,-1.05467 2.33788,-1.58201 3.42773,-1.58203 0.56249,2e-5 1.03124,0.19338 1.40625,0.58008 0.37499,0.38674 0.56249,0.90236 0.5625,1.54688 -10e-6,0.77345 -0.16408,1.71095 -0.49219,2.8125 l -2.14453,7.36523 c -0.26954,0.89063 -0.40431,1.38282 -0.40429,1.47656 -2e-5,0.16407 0.0469,0.29883 0.14062,0.4043 0.10546,0.10547 0.22264,0.1582 0.35156,0.1582 0.15233,0 0.32811,-0.0762 0.52735,-0.22851 0.66795,-0.51562 1.33006,-1.23047 1.98633,-2.14453 l 0.54492,0.33398 c -0.39846,0.6211 -0.9551,1.30664 -1.66992,2.05664 -0.70314,0.73828 -1.31252,1.25391 -1.82813,1.54688 -0.50392,0.28125 -0.95509,0.42187 -1.35352,0.42187 -0.4336,0 -0.79102,-0.14062 -1.07226,-0.42187 -0.26954,-0.26953 -0.40431,-0.6211 -0.4043,-1.05469 -10e-6,-0.51562 0.20507,-1.47656 0.61524,-2.88281 l 2.02148,-7.03125 c 0.2578,-0.8789 0.38671,-1.5703 0.38672,-2.07422 -10e-6,-0.23436 -0.0762,-0.42186 -0.22852,-0.5625 -0.14063,-0.14061 -0.32813,-0.21093 -0.5625,-0.21094 -0.33985,1e-5 -0.72657,0.12892 -1.16015,0.38672 -0.79689,0.4922 -1.71681,1.40626 -2.75977,2.74219 -0.28126,0.36329 -1.21876,1.82813 -2.8125,4.39453 -0.49219,0.82032 -0.89649,1.7168 -1.21289,2.68945 l -1.125,3.60352 h -2.63672 l 5.78321,-20.10938 0.61523,-2.17969 c -1e-5,-0.30466 -0.12891,-0.57419 -0.38672,-0.80859 -0.2461,-0.23435 -0.55079,-0.35154 -0.91406,-0.35156 -0.21094,2e-5 -0.53321,0.0352 -0.9668,0.10547 l -0.36914,0.0527 v -0.68555 l 6.08203,-1.01953"
         style="font-style:italic;font-weight:normal;font-size:36px;line-height:125%;font-family:'Times New Roman';-inkscape-font-specification:'Times New Roman, Italic';letter-spacing:0px;word-spacing:0px;fill:#000000;fill-opacity:1;stroke:none"
         id="path5013-5"
         inkscape:connector-curvature="0" />
      <path
         d="m 398.39373,250.24775 -1.11327,3.0586 h -9.375 v -0.4336 c 2.75781,-2.51562 4.69921,-4.57031 5.82422,-6.16406 1.12499,-1.59374 1.68749,-3.05077 1.6875,-4.37109 -10e-6,-1.00781 -0.3086,-1.83593 -0.92578,-2.48438 -0.6172,-0.64842 -1.35548,-0.97264 -2.21485,-0.97266 -0.78125,2e-5 -1.48438,0.23049 -2.10937,0.69141 -0.61719,0.45314 -1.07422,1.12111 -1.3711,2.00391 h -0.43359 c 0.19531,-1.4453 0.69531,-2.55468 1.5,-3.32813 0.8125,-0.77342 1.82421,-1.16014 3.03516,-1.16015 1.28905,1e-5 2.36327,0.41407 3.22265,1.24218 0.86718,0.82814 1.30077,1.8047 1.30078,2.92969 -1e-5,0.8047 -0.18751,1.60939 -0.5625,2.41406 -0.57813,1.26564 -1.51563,2.60548 -2.8125,4.01953 -1.94531,2.12501 -3.16016,3.40626 -3.64453,3.84375 h 4.14844 c 0.84374,1e-5 1.43359,-0.0312 1.76953,-0.0937 0.34374,-0.0625 0.65233,-0.18749 0.92578,-0.375 0.27343,-0.19531 0.51171,-0.46874 0.71484,-0.82031 h 0.43359"
         style="font-style:normal;font-weight:normal;font-size:24px;line-height:125%;font-family:'Times New Roman';-inkscape-font-specification:'Times New Roman';letter-spacing:0px;word-spacing:0px;fill:#000000;fill-opacity:1;stroke:none"
         id="path4258-8"
         inkscape:connector-curvature="0" />
      <path
         inkscape:connector-curvature="0"
         d="m 313.37218,437.32493 c 0.0937,-0.5039 0.27539,-1.08398 0.54492,-1.74023 0.26953,-0.65624 0.5332,-1.23632 0.79102,-1.74024 0.26952,-0.51561 0.70312,-1.30077 1.30078,-2.35546 0.60937,-1.05468 0.94335,-1.6289 1.00195,-1.72266 0.49218,-0.87889 0.79101,-1.5996 0.89649,-2.16211 0.14061,-0.71483 -0.0527,-1.07225 -0.58008,-1.07227 -0.94923,2e-5 -1.82813,0.49221 -2.63672,1.47657 -0.8086,0.97267 -1.48243,2.06251 -2.02148,3.26953 -0.0703,0.15235 -0.18165,0.22852 -0.33399,0.22851 h -0.42187 c -0.19923,10e-6 -0.2754,-0.11131 -0.22852,-0.33398 l 0.0176,-0.10547 c 0.66797,-1.42968 1.51171,-2.6953 2.53125,-3.79687 1.01953,-1.11327 2.13866,-1.66991 3.35742,-1.66993 0.85546,2e-5 1.52343,0.28127 2.00391,0.84375 0.48046,0.56252 0.6328,1.27736 0.45703,2.14453 -0.0938,0.44533 -0.28712,0.91408 -0.58008,1.40625 -0.42188,0.72658 -0.92579,1.59962 -1.51172,2.61915 -0.58594,1.01953 -1.07227,1.94532 -1.45898,2.77734 -0.37501,0.83204 -0.63868,1.63477 -0.79102,2.4082 -0.1875,0.93751 -0.0938,1.69922 0.28125,2.28516 0.375,0.58594 1.03124,0.87891 1.96875,0.8789 1.27734,1e-5 2.53124,-0.97265 3.76172,-2.91796 -1e-5,-0.14063 0.0234,-0.33984 0.0703,-0.59766 0.12889,-0.64453 0.37499,-1.37695 0.73828,-2.19727 l 3.63867,-8.10351 c 0.15233,-0.31639 0.39842,-0.58592 0.73829,-0.8086 0.33982,-0.23435 0.67966,-0.35154 1.01953,-0.35156 0.28123,2e-5 0.50974,0.0938 0.68554,0.28125 0.17577,0.18752 0.23436,0.43361 0.17579,0.73828 -0.0235,0.14064 -0.0528,0.23439 -0.0879,0.28125 l -3.63868,8.03321 c -0.42189,0.96094 -0.709,1.82227 -0.86132,2.58398 -0.1758,0.90235 -0.11721,1.64063 0.17578,2.21484 0.30467,0.56251 0.90232,0.84376 1.79297,0.84375 1.54685,1e-5 3.02341,-1.01952 4.42968,-3.05859 0.51561,-0.72656 1.14842,-1.79882 1.89844,-3.2168 0.74998,-1.41796 1.20115,-2.50194 1.35352,-3.25195 0.12888,-0.69139 0.12302,-1.23632 -0.0176,-1.63476 -0.14065,-0.41015 -0.36331,-0.8496 -0.66797,-1.31836 -0.29299,-0.46874 -0.41604,-0.8203 -0.36914,-1.05469 0.0937,-0.45702 0.37497,-0.87889 0.84375,-1.26563 0.46872,-0.39842 0.93747,-0.59764 1.40625,-0.59765 0.57419,10e-6 0.93161,0.26369 1.07226,0.79101 0.15232,0.52736 0.16404,1.12502 0.0352,1.79297 -0.16409,0.80861 -0.50393,1.83986 -1.01953,3.09375 -0.51565,1.2422 -1.10745,2.4961 -1.77539,3.76172 -0.65627,1.25391 -1.24221,2.25586 -1.75781,3.00586 -1.83987,2.60156 -3.7383,3.90234 -5.69531,3.90234 -1.00783,0 -1.88674,-0.19336 -2.63672,-0.58007 -0.75002,-0.38672 -1.2422,-1.00196 -1.47657,-1.84571 -0.52735,0.69141 -1.1543,1.27149 -1.88085,1.74024 -0.71486,0.45703 -1.45314,0.68554 -2.21485,0.68554 -1.58204,0 -2.77735,-0.375 -3.58594,-1.125 -0.80859,-0.76171 -1.05469,-1.91601 -0.73828,-3.46289"
         style="font-style:italic;font-variant:normal;font-weight:normal;font-stretch:normal;font-size:36px;line-height:125%;font-family:cmmi10;-inkscape-font-specification:'cmmi10 Italic';letter-spacing:0px;word-spacing:0px;fill:#000000;fill-opacity:1;stroke:none"
         id="path5161" />
      <path
         d="m 340.03591,432.75698 c 0.32812,2e-5 0.60546,0.1133 0.83203,0.33985 0.22656,0.22658 0.33984,0.50392 0.33985,0.83203 -10e-6,0.32033 -0.1172,0.59767 -0.35157,0.83203 -0.22657,0.22658 -0.5,0.33986 -0.82031,0.33984 -0.32032,2e-5 -0.59766,-0.11326 -0.83203,-0.33984 -0.22657,-0.23436 -0.33985,-0.5117 -0.33984,-0.83203 -10e-6,-0.32811 0.11327,-0.60545 0.33984,-0.83203 0.22656,-0.22655 0.5039,-0.33983 0.83203,-0.33985 m 0.15234,4.65235 -2.32031,8.21484 c -0.15625,0.55469 -0.23438,0.88672 -0.23437,0.9961 -1e-5,0.125 0.0351,0.22656 0.10547,0.30468 0.0781,0.0781 0.16796,0.11719 0.26953,0.11719 0.11718,0 0.25781,-0.0625 0.42187,-0.1875 0.44531,-0.35156 0.89453,-0.85156 1.34766,-1.5 l 0.41015,0.26953 c -0.53125,0.8125 -1.15625,1.4961 -1.875,2.05078 -0.53125,0.41407 -1.03906,0.6211 -1.52343,0.6211 -0.32032,0 -0.58204,-0.0937 -0.78516,-0.28125 -0.20313,-0.19532 -0.30469,-0.4375 -0.30469,-0.72657 0,-0.28906 0.0977,-0.76953 0.29297,-1.4414 l 1.52344,-5.25 c 0.25,-0.85937 0.375,-1.39843 0.375,-1.61719 0,-0.17187 -0.0625,-0.31249 -0.1875,-0.42187 -0.11719,-0.10937 -0.28125,-0.16406 -0.49219,-0.16407 -0.17188,10e-6 -0.52734,0.043 -1.0664,0.12891 v -0.45703 l 4.04296,-0.65625"
         style="font-style:italic;font-weight:normal;font-size:24px;line-height:125%;font-family:'Times New Roman';-inkscape-font-specification:'Times New Roman, Italic';letter-spacing:0px;word-spacing:0px;fill:#000000;fill-opacity:1;stroke:none"
         id="path5168"
         inkscape:connector-curvature="0" />
      <path
         d="m 346.82107,432.7687 c 0.32812,2e-5 0.60546,0.11721 0.83203,0.35157 0.23437,0.22657 0.35155,0.50392 0.35156,0.83203 -10e-6,0.32814 -0.11719,0.60939 -0.35156,0.84375 -0.22657,0.22657 -0.50391,0.33985 -0.83203,0.33984 -0.32813,10e-6 -0.60938,-0.11327 -0.84375,-0.33984 -0.22657,-0.23436 -0.33985,-0.51561 -0.33985,-0.84375 0,-0.32811 0.11328,-0.60546 0.33985,-0.83203 0.23437,-0.23436 0.51562,-0.35155 0.84375,-0.35157 m 0.1875,4.64063 -3.03516,10.48828 c -0.53906,1.875 -1.28125,3.22656 -2.22656,4.05469 -0.9375,0.82812 -1.95313,1.24218 -3.04688,1.24218 -0.49218,0 -0.86327,-0.11328 -1.11328,-0.33984 -0.25781,-0.22657 -0.38671,-0.4961 -0.38672,-0.80859 10e-6,-0.24219 0.0977,-0.45704 0.29297,-0.64453 0.18751,-0.1797 0.40626,-0.26954 0.65625,-0.26954 0.22657,0 0.42579,0.0742 0.59766,0.22266 0.14063,0.11718 0.21094,0.25 0.21094,0.39844 0,0.20312 -0.0977,0.3789 -0.29297,0.52734 -0.10938,0.0859 -0.16406,0.15625 -0.16407,0.21094 l 0.0234,0.0586 c 0.0234,0.0312 0.0586,0.0547 0.10547,0.0703 0.0469,0.0156 0.11719,0.0234 0.21094,0.0234 0.63281,0 1.17578,-0.20313 1.6289,-0.60937 0.44532,-0.39844 0.84375,-1.19922 1.19532,-2.40235 l 2.625,-9 c 0.25781,-0.8828 0.38671,-1.37108 0.38672,-1.46484 -10e-6,-0.18749 -0.0859,-0.35546 -0.25782,-0.50391 -0.16406,-0.14842 -0.375,-0.22264 -0.63281,-0.22265 -0.10156,10e-6 -0.21875,0.0117 -0.35156,0.0352 -0.10157,0.0156 -0.25,0.0391 -0.44531,0.0703 v -0.41016 l 4.01953,-0.72656"
         style="font-style:italic;font-weight:normal;font-size:24px;line-height:125%;font-family:'Times New Roman';-inkscape-font-specification:'Times New Roman, Italic';letter-spacing:0px;word-spacing:0px;fill:#000000;fill-opacity:1;stroke:none"
         id="path5170"
         inkscape:connector-curvature="0" />
      <path
         inkscape:connector-curvature="0"
         d="m 441.11871,438.85498 c -1.21876,1.46485 -2.44923,2.54297 -3.6914,3.23438 -1.2422,0.67968 -2.5547,1.01953 -3.9375,1.01953 -1.66407,0 -2.96485,-0.46875 -3.90235,-1.40625 -0.92578,-0.9375 -1.38867,-2.19727 -1.38867,-3.7793 0,-1.79296 0.49805,-3.55663 1.49414,-5.29102 1.00781,-1.73436 2.35547,-3.14061 4.04297,-4.21875 1.69921,-1.08982 3.36327,-1.63475 4.99219,-1.63476 1.27733,10e-6 2.23241,0.26955 2.86523,0.80859 0.6328,0.52736 0.94921,1.17775 0.94922,1.95117 -10e-6,0.72658 -0.22267,1.34767 -0.66797,1.86329 -0.32814,0.39844 -0.73243,0.59766 -1.21289,0.59765 -0.36329,1e-5 -0.66798,-0.11717 -0.91406,-0.35156 -0.23439,-0.23436 -0.35158,-0.52733 -0.35156,-0.87891 -2e-5,-0.22264 0.041,-0.42772 0.12304,-0.61523 0.0937,-0.18749 0.27538,-0.41014 0.54493,-0.66797 0.28123,-0.26952 0.45115,-0.46288 0.50976,-0.58008 0.0586,-0.11717 0.0879,-0.24022 0.0879,-0.36914 -1e-5,-0.24608 -0.11134,-0.45116 -0.33398,-0.61523 -0.33986,-0.23436 -0.82033,-0.35155 -1.44141,-0.35157 -1.14845,2e-5 -2.28516,0.40432 -3.41015,1.21289 -1.12501,0.80861 -2.08595,1.95705 -2.88282,3.44532 -0.96094,1.80469 -1.44141,3.60938 -1.4414,5.41406 -10e-6,1.19532 0.33984,2.14453 1.01953,2.84766 0.67968,0.6914 1.60546,1.03711 2.77734,1.03711 0.90234,0 1.79296,-0.22266 2.67188,-0.66797 0.89061,-0.45703 1.8867,-1.27734 2.98828,-2.46094 l 0.50976,0.45703"
         style="font-style:italic;font-weight:normal;font-size:36px;line-height:125%;font-family:'Times New Roman';-inkscape-font-specification:'Times New Roman, Italic';letter-spacing:0px;word-spacing:0px;fill:#000000;fill-opacity:1;stroke:none"
         id="path5493" />
      <path
         d="m 449.37081,435.03552 -4.00781,13.94531 c -0.19532,0.69531 -0.29297,1.12109 -0.29297,1.27734 0,0.11719 0.0352,0.21485 0.10547,0.29297 0.0781,0.0781 0.17187,0.11719 0.28125,0.11719 0.14843,0 0.30859,-0.0664 0.48047,-0.19922 0.40624,-0.32031 0.83202,-0.8164 1.27734,-1.48828 l 0.35156,0.36328 c -0.74219,1.04688 -1.42578,1.77734 -2.05078,2.19141 -0.46094,0.29687 -0.89844,0.44531 -1.3125,0.44531 -0.29688,0 -0.54688,-0.10156 -0.75,-0.30469 -0.19531,-0.20312 -0.29297,-0.4375 -0.29297,-0.70312 0,-0.28125 0.125,-0.85938 0.375,-1.73438 l 3.17578,-10.99219 c 0.25781,-0.89842 0.38672,-1.41404 0.38672,-1.54687 0,-0.18749 -0.0742,-0.33983 -0.22265,-0.45703 -0.14845,-0.12499 -0.37891,-0.18749 -0.69141,-0.1875 -0.17969,1e-5 -0.45313,0.0274 -0.82031,0.082 v -0.43359 l 4.00781,-0.66797"
         style="font-style:italic;font-weight:normal;font-size:24px;line-height:125%;font-family:'Times New Roman';-inkscape-font-specification:'Times New Roman, Italic';letter-spacing:0px;word-spacing:0px;fill:#000000;fill-opacity:1;stroke:none"
         id="path5188"
         inkscape:connector-curvature="0" />
      <path
         d="m 454.25753,436.44177 c 0.32812,10e-6 0.60546,0.11329 0.83203,0.33984 0.22656,0.22658 0.33984,0.50392 0.33984,0.83203 0,0.32033 -0.11719,0.59767 -0.35156,0.83203 -0.22657,0.22658 -0.5,0.33986 -0.82031,0.33985 -0.32032,10e-6 -0.59766,-0.11327 -0.83203,-0.33985 -0.22657,-0.23436 -0.33985,-0.5117 -0.33985,-0.83203 0,-0.32811 0.11328,-0.60545 0.33985,-0.83203 0.22655,-0.22655 0.5039,-0.33983 0.83203,-0.33984 m 0.15234,4.65234 -2.32031,8.21484 c -0.15625,0.55469 -0.23438,0.88672 -0.23438,0.9961 0,0.125 0.0352,0.22656 0.10547,0.30469 0.0781,0.0781 0.16797,0.11718 0.26953,0.11718 0.11719,0 0.25781,-0.0625 0.42188,-0.1875 0.44531,-0.35156 0.89453,-0.85156 1.34766,-1.5 l 0.41015,0.26953 c -0.53125,0.81251 -1.15625,1.4961 -1.875,2.05079 -0.53125,0.41406 -1.03906,0.62109 -1.52344,0.62109 -0.32031,0 -0.58203,-0.0937 -0.78515,-0.28125 -0.20313,-0.19531 -0.30469,-0.4375 -0.30469,-0.72656 0,-0.28907 0.0977,-0.76953 0.29297,-1.44141 l 1.52344,-5.25 c 0.24999,-0.85937 0.37499,-1.39843 0.375,-1.61719 -10e-6,-0.17186 -0.0625,-0.31249 -0.1875,-0.42187 -0.11719,-0.10937 -0.28126,-0.16406 -0.49219,-0.16406 -0.17188,0 -0.52735,0.043 -1.06641,0.1289 v -0.45703 l 4.04297,-0.65625"
         style="font-style:italic;font-weight:normal;font-size:24px;line-height:125%;font-family:'Times New Roman';-inkscape-font-specification:'Times New Roman, Italic';letter-spacing:0px;word-spacing:0px;fill:#000000;fill-opacity:1;stroke:none"
         id="path5190"
         inkscape:connector-curvature="0" />
      <path
         inkscape:connector-curvature="0"
         id="path4432-7"
         d="m 399.1961,277.29499 c 0,9.1104 -7.38545,16.49585 -16.49585,16.49585 -9.11041,0 -16.49585,-7.38545 -16.49585,-16.49585 0,-9.1104 7.38544,-16.49585 16.49585,-16.49585 9.1104,0 16.49585,7.38545 16.49585,16.49585 z"
         style="fill:#ff9955;fill-opacity:1;stroke:#000000;stroke-width:2.44137;stroke-linecap:round;stroke-miterlimit:4;stroke-dashoffset:0;stroke-opacity:1" />
      <path
         inkscape:connector-curvature="0"
         id="path4432-4-0"
         d="m 399.1961,421.00948 c 0,9.1104 -7.38545,16.49586 -16.49585,16.49586 -9.11041,0 -16.49585,-7.38546 -16.49585,-16.49586 0,-9.1104 7.38544,-16.49585 16.49585,-16.49585 9.1104,0 16.49585,7.38545 16.49585,16.49585 z"
         style="fill:#ff9955;fill-opacity:1;stroke:#000000;stroke-width:2.44137;stroke-linecap:round;stroke-miterlimit:4;stroke-dashoffset:0;stroke-opacity:1" />
      <path
         d="m 380.94211,364.66582 -4.93945,17.06836 c 2.1328,-3.21092 3.79687,-5.34373 4.99219,-6.39844 1.1953,-1.05467 2.33788,-1.58201 3.42773,-1.58203 0.56249,2e-5 1.03124,0.19338 1.40625,0.58008 0.37499,0.38674 0.56249,0.90236 0.5625,1.54688 -10e-6,0.77345 -0.16408,1.71095 -0.49219,2.8125 l -2.14453,7.36523 c -0.26954,0.89063 -0.40431,1.38282 -0.40429,1.47656 -2e-5,0.16407 0.0469,0.29883 0.14062,0.4043 0.10546,0.10547 0.22264,0.1582 0.35156,0.1582 0.15233,0 0.32811,-0.0762 0.52735,-0.22851 0.66795,-0.51562 1.33006,-1.23047 1.98633,-2.14453 l 0.54492,0.33398 c -0.39846,0.6211 -0.9551,1.30664 -1.66992,2.05664 -0.70314,0.73828 -1.31252,1.25391 -1.82813,1.54688 -0.50392,0.28125 -0.95509,0.42187 -1.35352,0.42187 -0.4336,0 -0.79102,-0.14062 -1.07226,-0.42187 -0.26954,-0.26953 -0.40431,-0.6211 -0.4043,-1.05469 -10e-6,-0.51562 0.20507,-1.47656 0.61524,-2.88281 l 2.02148,-7.03125 c 0.2578,-0.8789 0.38671,-1.5703 0.38672,-2.07422 -10e-6,-0.23436 -0.0762,-0.42186 -0.22852,-0.5625 -0.14063,-0.14061 -0.32813,-0.21093 -0.5625,-0.21094 -0.33985,1e-5 -0.72657,0.12892 -1.16015,0.38672 -0.79689,0.4922 -1.71681,1.40626 -2.75977,2.74219 -0.28126,0.36329 -1.21876,1.82813 -2.8125,4.39453 -0.49219,0.82032 -0.89649,1.7168 -1.21289,2.68945 l -1.125,3.60352 h -2.63672 l 5.78321,-20.10938 0.61523,-2.17969 c -1e-5,-0.30466 -0.12891,-0.57419 -0.38672,-0.80859 -0.2461,-0.23435 -0.55079,-0.35154 -0.91406,-0.35156 -0.21094,2e-5 -0.53321,0.0352 -0.9668,0.10547 l -0.36914,0.0527 v -0.68555 l 6.08203,-1.01953"
         style="font-style:italic;font-weight:normal;font-size:36px;line-height:125%;font-family:'Times New Roman';-inkscape-font-specification:'Times New Roman, Italic';letter-spacing:0px;word-spacing:0px;fill:#000000;fill-opacity:1;stroke:none"
         id="path5013-5-7"
         inkscape:connector-curvature="0" />
      <path
         d="m 388.87811,384.01303 c 0.45313,-1.0703 1.02344,-1.89452 1.71094,-2.47266 0.69531,-0.58592 1.55859,-0.87889 2.58984,-0.8789 1.27343,10e-6 2.25,0.41408 2.92969,1.24219 0.51562,0.6172 0.77343,1.27735 0.77344,1.98046 -1e-5,1.15627 -0.72657,2.35158 -2.17969,3.58594 0.97656,0.38282 1.71484,0.9297 2.21485,1.64063 0.49999,0.71094 0.74999,1.54688 0.75,2.50781 -10e-6,1.375 -0.43751,2.56641 -1.3125,3.57422 -1.14064,1.3125 -2.79298,1.96875 -4.95704,1.96875 -1.07031,0 -1.80078,-0.13281 -2.1914,-0.39844 -0.38282,-0.26562 -0.57422,-0.55078 -0.57422,-0.85547 0,-0.22656 0.0898,-0.42578 0.26953,-0.59765 0.1875,-0.17188 0.41015,-0.25781 0.66797,-0.25782 0.19531,10e-6 0.39453,0.0313 0.59766,0.0937 0.13281,0.0391 0.43359,0.1836 0.90234,0.4336 0.46875,0.24219 0.79296,0.38672 0.97266,0.43359 0.28905,0.0859 0.59765,0.12891 0.92578,0.12891 0.79687,0 1.48827,-0.3086 2.07422,-0.92578 0.59374,-0.61719 0.89061,-1.34766 0.89062,-2.19141 -10e-6,-0.61718 -0.13673,-1.21875 -0.41016,-1.80469 -0.20313,-0.43749 -0.42578,-0.76952 -0.66796,-0.99609 -0.33595,-0.31249 -0.79689,-0.59374 -1.38282,-0.84375 -0.58594,-0.25781 -1.1836,-0.38671 -1.79297,-0.38672 h -0.375 v -0.35156 c 0.61719,-0.0781 1.23437,-0.30078 1.85157,-0.66797 0.62499,-0.36718 1.07811,-0.80859 1.35937,-1.32422 0.28124,-0.51561 0.42187,-1.08202 0.42188,-1.69922 -1e-5,-0.80467 -0.25392,-1.45311 -0.76172,-1.94531 -0.50001,-0.49999 -1.12501,-0.74999 -1.875,-0.75 -1.21094,10e-6 -2.22266,0.64845 -3.03516,1.94531 l -0.38672,-0.1875"
         style="font-style:normal;font-variant:normal;font-weight:normal;font-stretch:normal;font-size:24px;line-height:125%;font-family:'Times New Roman';-inkscape-font-specification:'Times New Roman';text-align:start;letter-spacing:0px;word-spacing:0px;text-anchor:start;fill:#000000;fill-opacity:1;stroke:none"
         id="path3277"
         inkscape:connector-curvature="0" />
      <path
         inkscape:connector-curvature="0"
         d="m 523.10899,311.9407 c 0.39843,0.6797 0.67382,1.31837 0.82617,1.91602 0.15234,0.58595 0.30468,1.7461 0.45703,3.48046 l 0.77344,8.64844 c 0.70312,-0.84375 1.72265,-2.17968 3.0586,-4.00781 0.64451,-0.89062 1.44139,-2.10351 2.39062,-3.63867 0.57421,-0.93749 0.92577,-1.59374 1.05469,-1.96875 0.0703,-0.18749 0.10545,-0.38085 0.10547,-0.58008 -2e-5,-0.12889 -0.041,-0.23436 -0.12305,-0.31641 -0.0821,-0.082 -0.29884,-0.17577 -0.65039,-0.28125 -0.33986,-0.11717 -0.62697,-0.32225 -0.86133,-0.61523 -0.22267,-0.30468 -0.334,-0.65038 -0.33398,-1.03711 -2e-5,-0.48045 0.14061,-0.86717 0.42187,-1.16016 0.28124,-0.29295 0.6328,-0.43943 1.05469,-0.43945 0.51561,2e-5 0.95506,0.21681 1.31836,0.65039 0.36326,0.42189 0.5449,1.00783 0.54492,1.75781 -2e-5,0.9258 -0.31642,1.98634 -0.94922,3.18164 -0.63283,1.18361 -1.85157,3.00587 -3.65625,5.4668 -1.8047,2.46094 -3.99024,5.14453 -6.55664,8.05078 -1.76953,2.0039 -3.08203,3.26367 -3.9375,3.7793 -0.85547,0.52733 -1.58789,0.79101 -2.19726,0.79101 -0.36328,0 -0.67969,-0.14063 -0.94922,-0.42187 -0.28125,-0.26954 -0.42188,-0.58595 -0.42188,-0.94922 0,-0.45704 0.19336,-0.87305 0.58008,-1.24805 0.375,-0.375 0.78516,-0.5625 1.23047,-0.5625 0.23437,0 0.42773,0.0527 0.58008,0.15821 0.0937,0.0586 0.19922,0.22265 0.3164,0.49218 0.10547,0.28125 0.20508,0.46875 0.29883,0.5625 0.0586,0.0586 0.12891,0.0879 0.21094,0.0879 0.0703,0 0.19336,-0.0586 0.36914,-0.17578 0.64453,-0.39844 1.39453,-1.03125 2.25,-1.89843 1.12499,-1.14844 1.95703,-2.08594 2.49609,-2.8125 l -0.98437,-11.14454 c -0.16407,-1.83983 -0.41016,-2.95897 -0.73828,-3.35742 -0.32813,-0.39842 -0.87891,-0.59764 -1.65235,-0.59765 -0.24609,10e-6 -0.68555,0.0352 -1.31836,0.10547 l -0.1582,-0.6504 5.15039,-1.26562"
         style="font-style:italic;font-weight:normal;font-size:36px;line-height:125%;font-family:'Times New Roman';-inkscape-font-specification:'Times New Roman, Italic';letter-spacing:0px;word-spacing:0px;fill:#000000;fill-opacity:1;stroke:none"
         id="path4612-7" />
      <path
         inkscape:connector-curvature="0"
         id="path4432-5-3"
         d="m 497.34799,348.12081 c 0,9.1104 -7.38545,16.49586 -16.49585,16.49586 -9.11041,0 -16.49585,-7.38546 -16.49585,-16.49586 0,-9.1104 7.38544,-16.49584 16.49585,-16.49584 9.1104,0 16.49585,7.38544 16.49585,16.49584 z"
         style="fill:#ff9955;fill-opacity:1;stroke:#000000;stroke-width:2.44137;stroke-linecap:round;stroke-miterlimit:4;stroke-dashoffset:0;stroke-opacity:1" />
      <path
         inkscape:connector-curvature="0"
         id="path4057-1-9"
         d="m 497.80883,348.12082 h 52.59043"
         style="fill:none;stroke:#000000;stroke-width:2.48031;stroke-linecap:butt;stroke-linejoin:miter;stroke-miterlimit:4;stroke-dasharray:none;stroke-opacity:1;marker-end:url(#Arrow1Mend-9)" />
      <path
         id="path4332-7"
         d="m 305.00559,277.25487 c 0,5.04239 -4.08766,9.13006 -9.13006,9.13006 -5.0424,0 -9.13006,-4.08767 -9.13006,-9.13006 0,-5.0424 4.08766,-9.13007 9.13006,-9.13007 5.0424,0 9.13006,4.08767 9.13006,9.13007 z"
         style="fill:#008080;stroke:#000000;stroke-width:1.73987;stroke-miterlimit:4;stroke-dashoffset:0;stroke-opacity:1"
         inkscape:connector-curvature="0" />
      <path
         id="path4332-81-7"
         d="m 305.00559,372.37396 c 0,5.04239 -4.08766,9.13006 -9.13006,9.13006 -5.0424,0 -9.13006,-4.08767 -9.13006,-9.13006 0,-5.0424 4.08766,-9.13007 9.13006,-9.13007 5.0424,0 9.13006,4.08767 9.13006,9.13007 z"
         style="fill:#008080;stroke:#000000;stroke-width:1.73987;stroke-miterlimit:4;stroke-dashoffset:0;stroke-opacity:1"
         inkscape:connector-curvature="0" />
      <path
         inkscape:connector-curvature="0"
         id="path4057-8-6"
         d="m 230.18471,372.37396 h 52.59043"
         style="fill:none;stroke:#000000;stroke-width:2.48031;stroke-linecap:butt;stroke-linejoin:miter;stroke-miterlimit:4;stroke-dasharray:none;stroke-opacity:1;marker-end:url(#Arrow1Mend-9)" />
      <path
         sodipodi:nodetypes="cc"
         inkscape:connector-curvature="0"
         id="path4541-3"
         d="m 304.51621,279.95985 61.13667,136.32412"
         style="fill:none;stroke:#000000;stroke-width:2.48031;stroke-linecap:butt;stroke-linejoin:miter;stroke-miterlimit:4;stroke-dasharray:none;stroke-opacity:1;marker-end:url(#Arrow1Mend-9-0)" />
      <path
         sodipodi:nodetypes="cc"
         inkscape:connector-curvature="0"
         id="path4539-9-4"
         d="m 305.26666,374.01966 59.28536,49.22258"
         style="fill:none;stroke:#000000;stroke-width:2.48031;stroke-linecap:butt;stroke-linejoin:miter;stroke-miterlimit:4;stroke-dasharray:none;stroke-opacity:1;marker-end:url(#Arrow1Mend-9-0)" />
      <path
         sodipodi:nodetypes="cc"
         inkscape:connector-curvature="0"
         id="path4541-7-1"
         d="m 304.51621,369.83711 65.78821,-78.95512"
         style="fill:none;stroke:#000000;stroke-width:2.48031;stroke-linecap:butt;stroke-linejoin:miter;stroke-miterlimit:4;stroke-dasharray:none;stroke-opacity:1;marker-end:url(#Arrow1Mend-9-0)" />
      <path
         d="m 195.75399,362.53127 c 0.57421,0.60939 1.00781,1.21877 1.30078,1.82813 0.21093,0.42189 0.55664,1.52931 1.03711,3.32226 l 1.54688,-2.32031 c 0.41014,-0.56249 0.90819,-1.09569 1.49414,-1.59961 0.58592,-0.51561 1.10155,-0.86717 1.54687,-1.05469 0.28124,-0.11717 0.59179,-0.17576 0.93164,-0.17578 0.5039,2e-5 0.90233,0.13478 1.19532,0.4043 0.30467,0.26954 0.45701,0.59767 0.45703,0.98437 -2e-5,0.44533 -0.0879,0.75002 -0.26367,0.91407 -0.32814,0.29298 -0.70314,0.43946 -1.125,0.43945 -0.24611,10e-6 -0.50978,-0.0527 -0.79102,-0.1582 -0.55079,-0.18749 -0.91993,-0.28124 -1.10742,-0.28125 -0.28126,1e-5 -0.61525,0.16407 -1.00196,0.49218 -0.72657,0.60939 -1.59375,1.78712 -2.60156,3.53321 l 1.44141,6.04687 c 0.22265,0.92579 0.41015,1.48243 0.5625,1.66992 0.15233,0.17579 0.30467,0.26368 0.45703,0.26368 0.24608,0 0.53319,-0.13477 0.86133,-0.4043 0.64452,-0.53906 1.1953,-1.24219 1.65234,-2.10938 l 0.61524,0.31641 c -0.7383,1.38281 -1.6758,2.53125 -2.8125,3.44531 -0.64455,0.51563 -1.18947,0.77344 -1.63477,0.77344 -0.65626,0 -1.17774,-0.36914 -1.56445,-1.10742 -0.2461,-0.45703 -0.75587,-2.42578 -1.5293,-5.90625 -1.82813,3.17578 -3.29297,5.2207 -4.39453,6.13476 -0.71485,0.58594 -1.40625,0.87891 -2.07422,0.87891 -0.46875,0 -0.89648,-0.16992 -1.2832,-0.50977 -0.28125,-0.25781 -0.42188,-0.60351 -0.42188,-1.03711 0,-0.38671 0.12891,-0.70898 0.38672,-0.96679 0.25782,-0.25781 0.57422,-0.38672 0.94922,-0.38672 0.375,0 0.77344,0.1875 1.19531,0.5625 0.30469,0.26953 0.53906,0.4043 0.70313,0.4043 0.14062,0 0.32226,-0.0937 0.54492,-0.28125 0.55078,-0.44531 1.30078,-1.40625 2.25,-2.88282 0.94921,-1.47655 1.57031,-2.54296 1.86328,-3.19922 -0.72657,-2.84764 -1.11915,-4.3535 -1.17773,-4.51757 -0.26954,-0.76171 -0.6211,-1.30077 -1.05469,-1.61719 -0.4336,-0.31639 -1.07227,-0.4746 -1.91602,-0.47461 -0.26953,10e-6 -0.58008,0.0117 -0.93164,0.0352 v -0.63282 l 4.69336,-0.82617"
         style="font-style:italic;font-weight:normal;font-size:36px;line-height:125%;font-family:'Times New Roman';-inkscape-font-specification:'Times New Roman, Italic';letter-spacing:0px;word-spacing:0px;fill:#000000;fill-opacity:1;stroke:none"
         id="path4239-91"
         inkscape:connector-curvature="0" />
      <path
         d="m 207.68003,373.32945 c 0.45313,-1.0703 1.02344,-1.89452 1.71094,-2.47266 0.69531,-0.58592 1.55859,-0.87889 2.58984,-0.8789 1.27343,10e-6 2.25,0.41408 2.92969,1.24219 0.51562,0.6172 0.77343,1.27735 0.77344,1.98046 -1e-5,1.15627 -0.72657,2.35158 -2.17969,3.58594 0.97656,0.38282 1.71484,0.9297 2.21485,1.64063 0.49999,0.71094 0.74999,1.54688 0.75,2.50781 -1e-5,1.375 -0.43751,2.56641 -1.3125,3.57422 -1.14064,1.3125 -2.79298,1.96875 -4.95704,1.96875 -1.07031,0 -1.80078,-0.13281 -2.1914,-0.39844 -0.38282,-0.26562 -0.57422,-0.55078 -0.57422,-0.85547 0,-0.22656 0.0898,-0.42578 0.26953,-0.59765 0.1875,-0.17188 0.41015,-0.25781 0.66797,-0.25782 0.19531,10e-6 0.39453,0.0313 0.59766,0.0937 0.13281,0.0391 0.43359,0.1836 0.90234,0.4336 0.46875,0.24219 0.79296,0.38672 0.97266,0.43359 0.28905,0.0859 0.59765,0.12891 0.92578,0.12891 0.79687,0 1.48827,-0.3086 2.07422,-0.92578 0.59374,-0.61719 0.89061,-1.34766 0.89062,-2.19141 -1e-5,-0.61718 -0.13673,-1.21875 -0.41016,-1.80469 -0.20313,-0.43749 -0.42578,-0.76952 -0.66796,-0.99609 -0.33595,-0.31249 -0.79689,-0.59374 -1.38282,-0.84375 -0.58594,-0.25781 -1.1836,-0.38671 -1.79297,-0.38672 h -0.375 v -0.35156 c 0.61719,-0.0781 1.23437,-0.30078 1.85157,-0.66797 0.62499,-0.36718 1.07811,-0.80859 1.35937,-1.32422 0.28124,-0.51561 0.42187,-1.08202 0.42188,-1.69922 -1e-5,-0.80467 -0.25392,-1.45311 -0.76172,-1.94531 -0.50001,-0.5 -1.12501,-0.75 -1.875,-0.75 -1.21094,0 -2.22266,0.64845 -3.03516,1.94531 l -0.38672,-0.1875"
         style="font-style:normal;font-variant:normal;font-weight:normal;font-stretch:normal;font-size:24px;line-height:125%;font-family:'Times New Roman';-inkscape-font-specification:'Times New Roman';text-align:start;letter-spacing:0px;word-spacing:0px;text-anchor:start;fill:#000000;fill-opacity:1;stroke:none"
         id="path3277-6"
         inkscape:connector-curvature="0" />
      <path
         inkscape:connector-curvature="0"
         id="path4779-5"
         d="m 398.19828,276.86633 64.53849,64.5385"
         style="fill:none;stroke:#000000;stroke-width:2.48031;stroke-linecap:butt;stroke-linejoin:miter;stroke-miterlimit:4;stroke-dasharray:none;stroke-opacity:1;marker-end:url(#Arrow1Mend-9-0-9)" />
      <path
         inkscape:connector-curvature="0"
         id="path4779-0-0"
         d="m 398.19828,426.88185 64.53849,-64.5385"
         style="fill:none;stroke:#000000;stroke-width:2.48031;stroke-linecap:butt;stroke-linejoin:miter;stroke-miterlimit:4;stroke-dasharray:none;stroke-opacity:1;marker-end:url(#Arrow1Mend-9-0-9)" />
      <path
         sodipodi:nodetypes="cc"
         inkscape:connector-curvature="0"
         id="path4541-3-8"
         d="m 302.063,188.31822 68.54506,220.83233"
         style="fill:none;stroke:#000000;stroke-width:2.48031;stroke-linecap:butt;stroke-linejoin:miter;stroke-miterlimit:4;stroke-dasharray:none;stroke-opacity:1;marker-end:url(#Arrow1Mend-9-0)" />
      <path
         sodipodi:nodetypes="cc"
         inkscape:connector-curvature="0"
         id="path4541-3-8-9"
         d="M 302.063,365.74847 370.60806,144.91613"
         style="fill:none;stroke:#000000;stroke-width:2.48031;stroke-linecap:butt;stroke-linejoin:miter;stroke-miterlimit:4;stroke-dasharray:none;stroke-opacity:1;marker-end:url(#Arrow1Mend-9-0)" />
      <path
         sodipodi:nodetypes="cc"
         inkscape:connector-curvature="0"
         id="path4779-03"
         d="m 397.67939,141.4645 70.30677,194.32462"
         style="fill:none;stroke:#000000;stroke-width:2.48031;stroke-linecap:butt;stroke-linejoin:miter;stroke-miterlimit:4;stroke-dasharray:none;stroke-opacity:1;marker-end:url(#Arrow1Mend-9-0-9)" />
      <path
         sodipodi:nodetypes="cc"
         inkscape:connector-curvature="0"
         id="path4779-03-3"
         d="M 397.67939,418.43383 467.98616,224.10921"
         style="fill:none;stroke:#000000;stroke-width:2.48031;stroke-linecap:butt;stroke-linejoin:miter;stroke-miterlimit:4;stroke-dasharray:none;stroke-opacity:1;marker-end:url(#Arrow1Mend-9-0-9)" />
      <path
         d="m 541.68303,336.9584 -1.11328,3.0586 h -9.375 v -0.4336 c 2.75781,-2.51562 4.69921,-4.57031 5.82422,-6.16406 1.12499,-1.59374 1.68749,-3.05077 1.6875,-4.37109 -10e-6,-1.00781 -0.3086,-1.83593 -0.92578,-2.48438 -0.6172,-0.64842 -1.35548,-0.97264 -2.21485,-0.97266 -0.78125,2e-5 -1.48438,0.23049 -2.10937,0.69141 -0.61719,0.45314 -1.07422,1.12111 -1.3711,2.00391 h -0.43359 c 0.19531,-1.4453 0.69531,-2.55468 1.5,-3.32813 0.8125,-0.77342 1.82421,-1.16014 3.03516,-1.16015 1.28905,1e-5 2.36327,0.41407 3.22265,1.24218 0.86718,0.82814 1.30077,1.8047 1.30078,2.92969 -10e-6,0.8047 -0.18751,1.60939 -0.5625,2.41406 -0.57813,1.26564 -1.51563,2.60548 -2.8125,4.01953 -1.94531,2.12501 -3.16016,3.40626 -3.64453,3.84375 h 4.14844 c 0.84374,1e-5 1.43359,-0.0312 1.76953,-0.0937 0.34374,-0.0625 0.65234,-0.18749 0.92578,-0.375 0.27343,-0.19531 0.51171,-0.46874 0.71485,-0.82031 h 0.43359"
         style="font-style:normal;font-weight:normal;font-size:24px;line-height:125%;font-family:'Times New Roman';-inkscape-font-specification:'Times New Roman';letter-spacing:0px;word-spacing:0px;fill:#000000;fill-opacity:1;stroke:none"
         id="path4258-0"
         inkscape:connector-curvature="0" />
      <path
         inkscape:connector-curvature="0"
         d="m 523.10899,169.25763 c 0.39843,0.6797 0.67382,1.31837 0.82617,1.91602 0.15234,0.58595 0.30468,1.7461 0.45703,3.48046 l 0.77344,8.64844 c 0.70312,-0.84375 1.72265,-2.17968 3.0586,-4.00781 0.64451,-0.89062 1.44139,-2.10351 2.39062,-3.63867 0.57421,-0.93749 0.92577,-1.59374 1.05469,-1.96875 0.0703,-0.18749 0.10545,-0.38085 0.10547,-0.58008 -2e-5,-0.12889 -0.041,-0.23436 -0.12305,-0.31641 -0.0821,-0.082 -0.29884,-0.17577 -0.65039,-0.28125 -0.33986,-0.11717 -0.62697,-0.32225 -0.86133,-0.61523 -0.22267,-0.30468 -0.334,-0.65038 -0.33398,-1.03711 -2e-5,-0.48045 0.14061,-0.86717 0.42187,-1.16016 0.28124,-0.29295 0.6328,-0.43943 1.05469,-0.43945 0.51561,2e-5 0.95506,0.21681 1.31836,0.65039 0.36326,0.42189 0.5449,1.00783 0.54492,1.75781 -2e-5,0.9258 -0.31642,1.98634 -0.94922,3.18164 -0.63283,1.18361 -1.85157,3.00587 -3.65625,5.4668 -1.8047,2.46094 -3.99024,5.14453 -6.55664,8.05078 -1.76953,2.0039 -3.08203,3.26367 -3.9375,3.7793 -0.85547,0.52733 -1.58789,0.79101 -2.19726,0.79101 -0.36328,0 -0.67969,-0.14063 -0.94922,-0.42187 -0.28125,-0.26954 -0.42188,-0.58595 -0.42188,-0.94922 0,-0.45704 0.19336,-0.87305 0.58008,-1.24805 0.375,-0.375 0.78516,-0.5625 1.23047,-0.5625 0.23437,0 0.42773,0.0527 0.58008,0.15821 0.0937,0.0586 0.19922,0.22265 0.3164,0.49218 0.10547,0.28125 0.20508,0.46875 0.29883,0.5625 0.0586,0.0586 0.12891,0.0879 0.21094,0.0879 0.0703,0 0.19336,-0.0586 0.36914,-0.17578 0.64453,-0.39844 1.39453,-1.03125 2.25,-1.89843 1.12499,-1.14844 1.95703,-2.08594 2.49609,-2.8125 l -0.98437,-11.14454 c -0.16407,-1.83983 -0.41016,-2.95897 -0.73828,-3.35742 -0.32813,-0.39842 -0.87891,-0.59764 -1.65235,-0.59765 -0.24609,1e-5 -0.68555,0.0352 -1.31836,0.10547 l -0.1582,-0.6504 5.15039,-1.26562"
         style="font-style:italic;font-weight:normal;font-size:36px;line-height:125%;font-family:'Times New Roman';-inkscape-font-specification:'Times New Roman, Italic';letter-spacing:0px;word-spacing:0px;fill:#000000;fill-opacity:1;stroke:none"
         id="path4612" />
      <path
         d="m 534.3676,183.64748 3.86719,-1.88672 h 0.38672 v 13.41797 c -10e-6,0.89063 0.0352,1.44532 0.10547,1.66406 0.0781,0.21875 0.23436,0.38672 0.46875,0.50391 0.23436,0.11719 0.71093,0.18359 1.42968,0.19922 v 0.43359 h -5.97656 v -0.43359 c 0.75,-0.0156 1.23437,-0.0781 1.45313,-0.1875 0.21874,-0.11719 0.37109,-0.26953 0.45703,-0.45703 0.0859,-0.19531 0.1289,-0.76953 0.1289,-1.72266 v -8.57812 c 0,-1.15624 -0.0391,-1.89843 -0.11718,-2.22657 -0.0547,-0.24998 -0.15626,-0.43358 -0.30469,-0.55078 -0.14063,-0.11717 -0.3125,-0.17576 -0.51563,-0.17578 -0.28906,2e-5 -0.6914,0.12111 -1.20703,0.36328 l -0.17578,-0.36328"
         style="font-style:normal;font-weight:normal;font-size:24px;line-height:125%;font-family:'Times New Roman';-inkscape-font-specification:'Times New Roman';letter-spacing:0px;word-spacing:0px;fill:#000000;fill-opacity:1;stroke:none"
         id="path4305-1"
         inkscape:connector-curvature="0" />
      <path
         id="path3688"
         style="stroke:#000000;stroke-width:1.33782;stroke-linejoin:round"
         d="m 201.64603,415.80386 a 2.2458332,2.2458332 0 0 1 -2.24584,2.24584 2.2458332,2.2458332 0 0 1 -2.24583,-2.24584 2.2458332,2.2458332 0 0 1 2.24583,-2.24583 2.2458332,2.2458332 0 0 1 2.24584,2.24583 z" />
      <path
         id="path3688-7"
         style="stroke:#000000;stroke-width:1.33782;stroke-linejoin:round"
         d="m 201.64603,441.28806 a 2.2458332,2.2458332 0 0 1 -2.24584,2.24583 2.2458332,2.2458332 0 0 1 -2.24583,-2.24583 2.2458332,2.2458332 0 0 1 2.24583,-2.24584 2.2458332,2.2458332 0 0 1 2.24584,2.24584 z" />
      <path
         id="path3688-5"
         style="stroke:#000000;stroke-width:1.33782;stroke-linejoin:round"
         d="m 201.64603,428.54596 a 2.2458332,2.2458332 0 0 1 -2.24584,2.24583 2.2458332,2.2458332 0 0 1 -2.24583,-2.24583 2.2458332,2.2458332 0 0 1 2.24583,-2.24583 2.2458332,2.2458332 0 0 1 2.24584,2.24583 z" />
      <path
         id="path3688-8"
         style="stroke:#000000;stroke-width:1.33782;stroke-linejoin:round"
         d="m 528.20665,400.01215 a 2.2458332,2.2458332 0 0 1 -2.24583,2.24583 2.2458332,2.2458332 0 0 1 -2.24584,-2.24583 2.2458332,2.2458332 0 0 1 2.24584,-2.24584 2.2458332,2.2458332 0 0 1 2.24583,2.24584 z" />
      <path
         id="path3688-7-1"
         style="stroke:#000000;stroke-width:1.33782;stroke-linejoin:round"
         d="m 528.20665,425.49634 a 2.2458332,2.2458332 0 0 1 -2.24583,2.24583 2.2458332,2.2458332 0 0 1 -2.24584,-2.24583 2.2458332,2.2458332 0 0 1 2.24584,-2.24584 2.2458332,2.2458332 0 0 1 2.24583,2.24584 z" />
      <path
         id="path3688-5-3"
         style="stroke:#000000;stroke-width:1.33782;stroke-linejoin:round"
         d="m 528.20665,412.75424 a 2.2458332,2.2458332 0 0 1 -2.24583,2.24584 2.2458332,2.2458332 0 0 1 -2.24584,-2.24584 2.2458332,2.2458332 0 0 1 2.24584,-2.24583 2.2458332,2.2458332 0 0 1 2.24583,2.24583 z" />
      <path
         id="path3688-0"
         style="stroke:#000000;stroke-width:1.33782;stroke-linejoin:round"
         d="m 386.25285,460.68594 a 2.2458332,2.2458332 0 0 1 -2.24583,2.24584 2.2458332,2.2458332 0 0 1 -2.24583,-2.24584 2.2458332,2.2458332 0 0 1 2.24583,-2.24583 2.2458332,2.2458332 0 0 1 2.24583,2.24583 z" />
      <path
         id="path3688-7-7"
         style="stroke:#000000;stroke-width:1.33782;stroke-linejoin:round"
         d="m 386.25285,486.17014 a 2.2458332,2.2458332 0 0 1 -2.24583,2.24583 2.2458332,2.2458332 0 0 1 -2.24583,-2.24583 2.2458332,2.2458332 0 0 1 2.24583,-2.24584 2.2458332,2.2458332 0 0 1 2.24583,2.24584 z" />
      <path
         id="path3688-5-7"
         style="stroke:#000000;stroke-width:1.33782;stroke-linejoin:round"
         d="m 386.25285,473.42804 a 2.2458332,2.2458332 0 0 1 -2.24583,2.24583 2.2458332,2.2458332 0 0 1 -2.24583,-2.24583 2.2458332,2.2458332 0 0 1 2.24583,-2.24583 2.2458332,2.2458332 0 0 1 2.24583,2.24583 z" />
      <path
         d="m 195.31161,469.81033 c 0.57421,0.60939 1.00781,1.21877 1.30078,1.82813 0.21093,0.42189 0.55664,1.52931 1.03711,3.32226 l 1.54688,-2.32031 c 0.41014,-0.56249 0.90819,-1.09569 1.49414,-1.59961 0.58592,-0.51561 1.10155,-0.86717 1.54687,-1.05469 0.28124,-0.11717 0.59179,-0.17576 0.93164,-0.17578 0.5039,2e-5 0.90233,0.13478 1.19532,0.4043 0.30467,0.26954 0.45701,0.59767 0.45703,0.98437 -2e-5,0.44533 -0.0879,0.75002 -0.26367,0.91407 -0.32814,0.29298 -0.70314,0.43946 -1.125,0.43945 -0.24611,10e-6 -0.50978,-0.0527 -0.79102,-0.1582 -0.55079,-0.18749 -0.91993,-0.28124 -1.10742,-0.28125 -0.28126,1e-5 -0.61525,0.16407 -1.00196,0.49218 -0.72657,0.60939 -1.59375,1.78712 -2.60156,3.53321 l 1.44141,6.04687 c 0.22265,0.92579 0.41015,1.48243 0.5625,1.66992 0.15233,0.17579 0.30467,0.26368 0.45703,0.26368 0.24608,0 0.53319,-0.13477 0.86133,-0.4043 0.64452,-0.53906 1.1953,-1.24219 1.65234,-2.10938 l 0.61524,0.31641 c -0.7383,1.38281 -1.6758,2.53125 -2.8125,3.44531 -0.64455,0.51563 -1.18947,0.77344 -1.63477,0.77344 -0.65626,0 -1.17774,-0.36914 -1.56445,-1.10742 -0.2461,-0.45703 -0.75587,-2.42578 -1.5293,-5.90625 -1.82813,3.17578 -3.29297,5.2207 -4.39453,6.13476 -0.71485,0.58594 -1.40625,0.87891 -2.07422,0.87891 -0.46875,0 -0.89648,-0.16992 -1.2832,-0.50977 -0.28125,-0.25781 -0.42188,-0.60351 -0.42188,-1.03711 0,-0.38671 0.12891,-0.70898 0.38672,-0.96679 0.25782,-0.25781 0.57422,-0.38672 0.94922,-0.38672 0.375,0 0.77344,0.1875 1.19531,0.5625 0.30469,0.26953 0.53906,0.4043 0.70313,0.4043 0.14062,0 0.32226,-0.0937 0.54492,-0.28125 0.55078,-0.44531 1.30078,-1.40625 2.25,-2.88282 0.94921,-1.47655 1.57031,-2.54296 1.86328,-3.19922 -0.72657,-2.84764 -1.11915,-4.3535 -1.17773,-4.51757 -0.26954,-0.76171 -0.6211,-1.30077 -1.05469,-1.61719 -0.4336,-0.31639 -1.07227,-0.4746 -1.91602,-0.47461 -0.26953,1e-5 -0.58008,0.0117 -0.93164,0.0352 v -0.63282 l 4.69336,-0.82617"
         style="font-style:italic;font-weight:normal;font-size:36px;line-height:125%;font-family:'Times New Roman';-inkscape-font-specification:'Times New Roman, Italic';letter-spacing:0px;word-spacing:0px;fill:#000000;fill-opacity:1;stroke:none"
         id="path4239-91-6"
         inkscape:connector-curvature="0" />
      <path
         d="m 215.72789,475.29406 c 0.32812,2e-5 0.60546,0.11721 0.83203,0.35157 0.23438,0.22657 0.35155,0.50392 0.35156,0.83203 -1e-5,0.32814 -0.11718,0.60939 -0.35156,0.84375 -0.22657,0.22657 -0.50391,0.33985 -0.83203,0.33984 -0.32813,1e-5 -0.60938,-0.11327 -0.84375,-0.33984 -0.22657,-0.23436 -0.33985,-0.51561 -0.33985,-0.84375 0,-0.32811 0.11328,-0.60546 0.33985,-0.83203 0.23437,-0.23436 0.51562,-0.35155 0.84375,-0.35157 m 0.1875,4.64063 -3.03516,10.48828 c -0.53906,1.875 -1.28125,3.22656 -2.22656,4.05469 -0.9375,0.82812 -1.95312,1.24218 -3.04687,1.24218 -0.49218,0 -0.86327,-0.11328 -1.11329,-0.33984 -0.25781,-0.22657 -0.3867,-0.4961 -0.38671,-0.80859 1e-5,-0.24219 0.0977,-0.45704 0.29296,-0.64453 0.18752,-0.1797 0.40627,-0.26954 0.65625,-0.26954 0.22658,0 0.4258,0.0742 0.59766,0.22266 0.14063,0.11718 0.21094,0.25 0.21094,0.39844 0,0.20312 -0.0977,0.3789 -0.29297,0.52734 -0.10938,0.0859 -0.16406,0.15625 -0.16407,0.21094 l 0.0234,0.0586 c 0.0234,0.0312 0.0586,0.0547 0.10547,0.0703 0.0469,0.0156 0.11719,0.0234 0.21094,0.0234 0.63281,0 1.17578,-0.20313 1.6289,-0.60937 0.44532,-0.39844 0.84375,-1.19922 1.19532,-2.40235 l 2.625,-9 c 0.25781,-0.8828 0.38671,-1.37108 0.38672,-1.46484 -10e-6,-0.18749 -0.0859,-0.35546 -0.25782,-0.50391 -0.16406,-0.14842 -0.375,-0.22264 -0.63281,-0.22265 -0.10156,1e-5 -0.21875,0.0117 -0.35156,0.0352 -0.10157,0.0156 -0.25,0.0391 -0.44531,0.0703 v -0.41016 l 4.01953,-0.72656"
         style="font-style:italic;font-weight:normal;font-size:24px;line-height:125%;font-family:'Times New Roman';-inkscape-font-specification:'Times New Roman, Italic';letter-spacing:0px;word-spacing:0px;fill:#000000;fill-opacity:1;stroke:none"
         id="path5170-3"
         inkscape:connector-curvature="0" />
      <path
         d="m 381.71848,505.52402 -4.93945,17.06836 c 2.1328,-3.21093 3.79687,-5.34374 4.99219,-6.39844 1.1953,-1.05467 2.33788,-1.58202 3.42773,-1.58203 0.56249,1e-5 1.03124,0.19337 1.40625,0.58007 0.37499,0.38674 0.56249,0.90236 0.5625,1.54688 -1e-5,0.77345 -0.16408,1.71095 -0.49219,2.8125 l -2.14453,7.36523 c -0.26954,0.89063 -0.40431,1.38282 -0.40429,1.47657 -2e-5,0.16406 0.0469,0.29883 0.14062,0.40429 0.10546,0.10547 0.22264,0.15821 0.35156,0.15821 0.15233,0 0.32811,-0.0762 0.52735,-0.22852 0.66795,-0.51562 1.33006,-1.23046 1.98633,-2.14453 l 0.54492,0.33398 c -0.39846,0.6211 -0.9551,1.30665 -1.66992,2.05664 -0.70314,0.73828 -1.31252,1.25391 -1.82813,1.54688 -0.50392,0.28125 -0.95509,0.42187 -1.35351,0.42187 -0.43361,0 -0.79103,-0.14062 -1.07227,-0.42187 -0.26954,-0.26953 -0.40431,-0.6211 -0.4043,-1.05469 -10e-6,-0.51562 0.20507,-1.47656 0.61524,-2.88281 l 2.02148,-7.03125 c 0.2578,-0.87889 0.38671,-1.5703 0.38672,-2.07422 -10e-6,-0.23436 -0.0762,-0.42186 -0.22852,-0.5625 -0.14063,-0.14061 -0.32813,-0.21092 -0.5625,-0.21094 -0.33985,2e-5 -0.72657,0.12892 -1.16015,0.38672 -0.79689,0.4922 -1.71681,1.40626 -2.75977,2.74219 -0.28126,0.36329 -1.21876,1.82813 -2.8125,4.39453 -0.49219,0.82032 -0.89649,1.7168 -1.21289,2.68945 l -1.125,3.60352 h -2.63672 l 5.78321,-20.10937 0.61523,-2.17969 c -10e-6,-0.30467 -0.12891,-0.5742 -0.38672,-0.8086 -0.2461,-0.23435 -0.55079,-0.35154 -0.91406,-0.35156 -0.21094,2e-5 -0.53321,0.0352 -0.9668,0.10547 l -0.36914,0.0527 v -0.68555 l 6.08203,-1.01953"
         style="font-style:italic;font-weight:normal;font-size:36px;line-height:125%;font-family:'Times New Roman';-inkscape-font-specification:'Times New Roman, Italic';letter-spacing:0px;word-spacing:0px;fill:#000000;fill-opacity:1;stroke:none"
         id="path5013-58"
         inkscape:connector-curvature="0" />
      <path
         d="m 396.44549,521.92982 c 0.32812,1e-5 0.60546,0.11329 0.83203,0.33984 0.22656,0.22658 0.33984,0.50392 0.33984,0.83203 0,0.32033 -0.11719,0.59767 -0.35156,0.83203 -0.22657,0.22658 -0.5,0.33986 -0.82031,0.33985 -0.32032,1e-5 -0.59766,-0.11327 -0.83203,-0.33985 -0.22658,-0.23436 -0.33985,-0.5117 -0.33985,-0.83203 0,-0.32811 0.11327,-0.60545 0.33985,-0.83203 0.22655,-0.22655 0.5039,-0.33983 0.83203,-0.33984 m 0.15234,4.65234 -2.32031,8.21484 c -0.15625,0.55469 -0.23439,0.88672 -0.23439,0.9961 0,0.125 0.0352,0.22656 0.10548,0.30469 0.0781,0.0781 0.16797,0.11718 0.26952,0.11718 0.1172,0 0.25782,-0.0625 0.42189,-0.1875 0.44531,-0.35156 0.89453,-0.85156 1.34766,-1.5 l 0.41015,0.26953 c -0.53125,0.81251 -1.15625,1.4961 -1.875,2.05079 -0.53125,0.41406 -1.03906,0.62109 -1.52345,0.62109 -0.3203,0 -0.58202,-0.0937 -0.78514,-0.28125 -0.20313,-0.19531 -0.30469,-0.4375 -0.30469,-0.72656 0,-0.28907 0.0977,-0.76953 0.29297,-1.44141 l 1.52344,-5.25 c 0.24999,-0.85937 0.37499,-1.39843 0.375,-1.61719 -10e-6,-0.17186 -0.0625,-0.31249 -0.1875,-0.42187 -0.11719,-0.10937 -0.28126,-0.16406 -0.49219,-0.16406 -0.17189,0 -0.52735,0.043 -1.06641,0.1289 v -0.45703 l 4.04297,-0.65625"
         style="font-style:italic;font-weight:normal;font-size:24px;line-height:125%;font-family:'Times New Roman';-inkscape-font-specification:'Times New Roman, Italic';letter-spacing:0px;word-spacing:0px;fill:#000000;fill-opacity:1;stroke:none"
         id="path5190-6"
         inkscape:connector-curvature="0" />
      <path
         inkscape:connector-curvature="0"
         d="m 523.12071,456.85624 c 0.39843,0.6797 0.67382,1.31837 0.82617,1.91602 0.15234,0.58595 0.30468,1.7461 0.45703,3.48046 l 0.77344,8.64844 c 0.70312,-0.84375 1.72265,-2.17968 3.0586,-4.00781 0.64451,-0.89062 1.44139,-2.10351 2.39062,-3.63867 0.57421,-0.93749 0.92577,-1.59374 1.05469,-1.96875 0.0703,-0.18749 0.10545,-0.38085 0.10547,-0.58008 -2e-5,-0.12889 -0.041,-0.23436 -0.12305,-0.31641 -0.0821,-0.082 -0.29884,-0.17577 -0.65039,-0.28125 -0.33986,-0.11717 -0.62697,-0.32225 -0.86133,-0.61523 -0.22267,-0.30468 -0.334,-0.65038 -0.33398,-1.03711 -2e-5,-0.48045 0.14061,-0.86717 0.42187,-1.16016 0.28124,-0.29295 0.6328,-0.43943 1.05469,-0.43945 0.51561,2e-5 0.95506,0.21681 1.31836,0.65039 0.36326,0.42189 0.5449,1.00783 0.54492,1.75781 -2e-5,0.9258 -0.31642,1.98634 -0.94922,3.18164 -0.63283,1.18361 -1.85157,3.00587 -3.65625,5.4668 -1.8047,2.46094 -3.99024,5.14453 -6.55664,8.05078 -1.76953,2.0039 -3.08203,3.26367 -3.9375,3.7793 -0.85547,0.52733 -1.58789,0.79101 -2.19726,0.79101 -0.36328,0 -0.67969,-0.14063 -0.94922,-0.42187 -0.28125,-0.26954 -0.42188,-0.58595 -0.42188,-0.94922 0,-0.45704 0.19336,-0.87305 0.58008,-1.24805 0.375,-0.375 0.78516,-0.5625 1.23047,-0.5625 0.23437,0 0.42773,0.0527 0.58008,0.15821 0.0937,0.0586 0.19922,0.22265 0.3164,0.49218 0.10547,0.28125 0.20508,0.46875 0.29883,0.5625 0.0586,0.0586 0.12891,0.0879 0.21094,0.0879 0.0703,0 0.19336,-0.0586 0.36914,-0.17578 0.64453,-0.39844 1.39453,-1.03125 2.25,-1.89843 1.12499,-1.14844 1.95703,-2.08594 2.49609,-2.8125 l -0.98437,-11.14454 c -0.16407,-1.83983 -0.41016,-2.95897 -0.73828,-3.35742 -0.32813,-0.39842 -0.87891,-0.59764 -1.65235,-0.59765 -0.24609,10e-6 -0.68555,0.0352 -1.31836,0.10547 l -0.1582,-0.6504 5.15039,-1.26562"
         style="font-style:italic;font-weight:normal;font-size:36px;line-height:125%;font-family:'Times New Roman';-inkscape-font-specification:'Times New Roman, Italic';letter-spacing:0px;word-spacing:0px;fill:#000000;fill-opacity:1;stroke:none"
         id="path4612-0" />
      <path
         d="m 540.61369,468.99611 -4.0078,13.94531 c -0.19533,0.6953 -0.29297,1.12108 -0.29297,1.27733 0,0.1172 0.0352,0.21485 0.10547,0.29297 0.0781,0.0781 0.17187,0.1172 0.28125,0.1172 0.14842,0 0.30859,-0.0664 0.48047,-0.19922 0.40624,-0.32031 0.83201,-0.81641 1.27733,-1.48828 l 0.35156,0.36328 c -0.74219,1.04688 -1.42578,1.77734 -2.05078,2.19141 -0.46094,0.29687 -0.89844,0.44531 -1.3125,0.44531 -0.29688,0 -0.54688,-0.10156 -0.75,-0.3047 -0.19531,-0.20312 -0.29297,-0.4375 -0.29297,-0.70312 0,-0.28125 0.125,-0.85938 0.375,-1.73438 l 3.17578,-10.99219 c 0.25781,-0.89842 0.38672,-1.41404 0.38672,-1.54687 0,-0.18749 -0.0742,-0.33983 -0.22265,-0.45703 -0.14845,-0.12499 -0.37891,-0.18749 -0.69141,-0.1875 -0.17969,1e-5 -0.45313,0.0274 -0.82031,0.082 v -0.43359 l 4.00781,-0.66797"
         style="font-style:italic;font-weight:normal;font-size:24px;line-height:125%;font-family:'Times New Roman';-inkscape-font-specification:'Times New Roman, Italic';letter-spacing:0px;word-spacing:0px;fill:#000000;fill-opacity:1;stroke:none"
         id="path5188-0"
         inkscape:connector-curvature="0" />
    </g>
  </g>
</svg>
